Mar 13, 2015 12:42:33 AM com.genuitec.pulse.client.deliverypackage.runtime.internal.Activator initializeLoggers
INFO: Package starting up at Fri Mar 13 00:42:32 CET 2015
Mar 13, 2015 12:42:38 AM com.genuitec.pulse.client.deliverypackage.runtime.UpdatesService checkForWorkspaceUpdates
INFO: Latest version of package has already been enabled in the workspace; check finished in 4ms
