Mar 24, 2015 12:28:40 PM com.genuitec.pulse.client.deliverypackage.runtime.internal.Activator initializeLoggers
INFO: Package starting up at Tue Mar 24 12:28:40 CET 2015
Mar 24, 2015 12:28:48 PM com.genuitec.pulse.client.deliverypackage.runtime.UpdatesService checkForWorkspaceUpdates
INFO: Latest version of package has already been enabled in the workspace; check finished in 4ms
Mar 24, 2015 12:29:51 PM com.genuitec.pulse.client.common.widgets.systemid.SystemIDService loadOrDetermineSystemID
SEVERE: Unable to determine system ID using common.system service: java.lang.reflect.InvocationTargetException
Mar 24, 2015 12:29:54 PM com.genuitec.pulse.client.deliverypackage.runtime.UpdatesService checkForUpdates
INFO: Latest version of package is installed; update check finished in 3323ms
