Mar 25, 2015 11:51:56 PM com.genuitec.pulse.client.deliverypackage.runtime.internal.Activator initializeLoggers
INFO: Package starting up at Wed Mar 25 23:51:56 CET 2015
Mar 25, 2015 11:52:00 PM com.genuitec.pulse.client.deliverypackage.runtime.UpdatesService checkForWorkspaceUpdates
INFO: Latest version of package has already been enabled in the workspace; check finished in 4ms
