Mar 26, 2015 10:56:40 PM com.genuitec.pulse.client.deliverypackage.runtime.internal.Activator initializeLoggers
INFO: Package starting up at Thu Mar 26 22:56:40 CET 2015
Mar 26, 2015 10:56:49 PM com.genuitec.pulse.client.deliverypackage.runtime.UpdatesService checkForWorkspaceUpdates
INFO: Latest version of package has already been enabled in the workspace; check finished in 5ms
