\relax 
\providecommand\hyper@newdestlabel[2]{}
\catcode `"\active 
\bibstyle{chicago}
\providecommand\HyperFirstAtBeginDocument{\AtBeginDocument}
\HyperFirstAtBeginDocument{\ifx\hyper@anchor\@undefined
\global\let\oldcontentsline\contentsline
\gdef\contentsline#1#2#3#4{\oldcontentsline{#1}{#2}{#3}}
\global\let\oldnewlabel\newlabel
\gdef\newlabel#1#2{\newlabelxx{#1}#2}
\gdef\newlabelxx#1#2#3#4#5#6{\oldnewlabel{#1}{{#2}{#3}}}
\AtEndDocument{\ifx\hyper@anchor\@undefined
\let\contentsline\oldcontentsline
\let\newlabel\oldnewlabel
\fi}
\fi}
\global\let\hyper@last\relax 
\gdef\HyperFirstAtBeginDocument#1{#1}
\providecommand\HyField@AuxAddToFields[1]{}
\providecommand\HyField@AuxAddToCoFields[2]{}
\reset@newl@bel
\select@language{ngerman}
\@writefile{toc}{\select@language{ngerman}}
\@writefile{lof}{\select@language{ngerman}}
\@writefile{lot}{\select@language{ngerman}}
\@writefile{toc}{\contentsline {chapter}{Zusammenfassung}{i}{chapter*.3}}
\@writefile{lof}{\addvspace {10\p@ }}
\@writefile{lot}{\addvspace {10\p@ }}
\@writefile{lol}{\addvspace {10\p@ }}
\@writefile{loa}{\addvspace {10\p@ }}
\newlabel{sec:zusammenfassung}{{}{i}{Zusammenfassung}{chapter*.3}{}}
\@writefile{toc}{\contentsline {chapter}{Abstract}{ii}{chapter*.4}}
\@writefile{lof}{\addvspace {10\p@ }}
\@writefile{lot}{\addvspace {10\p@ }}
\@writefile{lol}{\addvspace {10\p@ }}
\@writefile{loa}{\addvspace {10\p@ }}
\newlabel{sec:abstract}{{}{ii}{Abstract}{chapter*.4}{}}
\@writefile{toc}{\contentsline {chapter}{Inhaltsverzeichnis}{iii}{chapter*.4}}
\@writefile{toc}{\contentsline {chapter}{Abbildungsverzeichnis}{v}{chapter*.6}}
\citation{statisik:interesseUndNutzungCarsharing}
\citation{statisik:interesseUndNutzungCarsharing}
\citation{bcs:jahresbilanz2013}
\citation{statisik:carsharingAnbieterVergleich}
\citation{statisik:carsharingAnbieterVergleich}
\@writefile{toc}{\contentsline {chapter}{\numberline {1}Einleitung}{1}{chapter.1}}
\@writefile{lof}{\addvspace {10\p@ }}
\@writefile{lot}{\addvspace {10\p@ }}
\@writefile{lol}{\addvspace {10\p@ }}
\@writefile{loa}{\addvspace {10\p@ }}
\@writefile{lof}{\contentsline {figure}{\numberline {\relax 1.1}{\ignorespaces Interessenten am Carsharing-Konzept und tats\IeC {\"a}chliche Anzahl der Nutzer (R\IeC {\"u}ckblick)}}{1}{figure.caption.7}}
\@cons\caption@pkg@list{{ragged2e}}
\providecommand*\caption@xref[2]{\@setref\relax\@undefined{#1}}
\newlabel{carsharing_nutzer_interessenten_vergleich}{{\relax 1.1}{1}{Interessenten am Carsharing-Konzept und tatsächliche Anzahl der Nutzer (Rückblick)}{figure.caption.7}{}}
\citation{wagnerdata}
\@writefile{lof}{\contentsline {figure}{\numberline {\relax 1.2}{\ignorespaces Carsharing-Anbieter im Vergleich}}{2}{figure.caption.8}}
\newlabel{carsharing_anbieter}{{\relax 1.2}{2}{Carsharing-Anbieter im Vergleich}{figure.caption.8}{}}
\@writefile{toc}{\contentsline {section}{\numberline {1.1}Carsharing-Konzepte}{2}{section.1.1}}
\@writefile{toc}{\contentsline {subsection}{\numberline {1.1.1}Round-Trip}{2}{subsection.1.1.1}}
\@writefile{toc}{\contentsline {subsection}{\numberline {1.1.2}One-Way}{2}{subsection.1.1.2}}
\@writefile{toc}{\contentsline {subsection}{\numberline {1.1.3}Free-Floating}{2}{subsection.1.1.3}}
\citation{jorgecomparing}
\citation{deAlmeida}
\citation{jorgecomparing}
\citation{deAlmeida}
\citation{wagner2015free}
\citation{wagnerdata}
\citation{wagner2015free}
\citation{wagnerdata}
\citation{shimrat1962algorithm}
\@writefile{toc}{\contentsline {section}{\numberline {1.2}Motivation}{3}{section.1.2}}
\@writefile{toc}{\contentsline {section}{\numberline {1.3}Verwandte Arbeiten}{3}{section.1.3}}
\@writefile{toc}{\contentsline {subsection}{\numberline {1.3.1}Generierung von Simulationen und mathematischen Modellen}{3}{subsection.1.3.1}}
\@writefile{toc}{\contentsline {subsection}{\numberline {1.3.2}Untersuchung von Nachfrageverhalten im Free-Floating Carsharing}{3}{subsection.1.3.2}}
\@writefile{toc}{\contentsline {chapter}{\numberline {2}Design}{4}{chapter.2}}
\@writefile{lof}{\addvspace {10\p@ }}
\@writefile{lot}{\addvspace {10\p@ }}
\@writefile{lol}{\addvspace {10\p@ }}
\@writefile{loa}{\addvspace {10\p@ }}
\newlabel{Design}{{2}{4}{Design}{chapter.2}{}}
\@writefile{toc}{\contentsline {section}{\numberline {2.1}Informationsmanagment}{4}{section.2.1}}
\newlabel{dataflow_design}{{2.1}{4}{Informationsmanagment}{section.2.1}{}}
\@writefile{lof}{\contentsline {figure}{\numberline {\relax 2.1}{\ignorespaces Allgemeines Konzept (Design) der Implementierung}}{4}{figure.caption.9}}
\@writefile{toc}{\contentsline {section}{\numberline {2.2}Datenmodellierung}{5}{section.2.2}}
\newlabel{er_diagram}{{2.2}{5}{Datenmodellierung}{section.2.2}{}}
\@writefile{lof}{\contentsline {figure}{\numberline {\relax 2.2}{\ignorespaces Entity-Relationship-Modell (ER-Modell) der Datenbank}}{5}{figure.caption.10}}
\newlabel{state}{{2.2}{6}{Datenmodellierung}{figure.caption.10}{}}
\@writefile{toc}{\contentsline {subsection}{\numberline {2.2.1}State}{6}{subsection.2.2.1}}
\@writefile{toc}{\contentsline {subsection}{\numberline {2.2.2}Address}{6}{subsection.2.2.2}}
\@writefile{toc}{\contentsline {subsection}{\numberline {2.2.3}Car}{6}{subsection.2.2.3}}
\@writefile{toc}{\contentsline {subsection}{\numberline {2.2.4}Parking-Slot}{6}{subsection.2.2.4}}
\@writefile{toc}{\contentsline {chapter}{\numberline {3}Implementierung}{7}{chapter.3}}
\@writefile{lof}{\addvspace {10\p@ }}
\@writefile{lot}{\addvspace {10\p@ }}
\@writefile{lol}{\addvspace {10\p@ }}
\@writefile{loa}{\addvspace {10\p@ }}
\newlabel{Implementierung}{{3}{7}{Implementierung}{chapter.3}{}}
\@writefile{lof}{\contentsline {figure}{\numberline {\relax 3.1}{\ignorespaces Modularer Aufbau der Implementierung}}{7}{figure.caption.11}}
\newlabel{dataflow_implementation}{{\relax 3.1}{7}{Modularer Aufbau der Implementierung}{figure.caption.11}{}}
\@writefile{toc}{\contentsline {section}{\numberline {3.1}Crawling von Daten mit Hilfe einer Entwickler-API}{7}{section.3.1}}
\citation{oauth}
\citation{car2go}
\@writefile{toc}{\contentsline {subsection}{\numberline {3.1.1}Car2Go-Request}{8}{subsection.3.1.1}}
\newlabel{Car2Go-Request}{{3.1.1}{8}{Car2Go-Request}{subsection.3.1.1}{}}
\@writefile{lot}{\contentsline {table}{\numberline {\relax 3.1}{\ignorespaces Bestandteile einer exemplarischen API-Anfrage an den Car2Go-Server}}{8}{table.caption.12}}
\newlabel{car2go_request_elements}{{\relax 3.1}{8}{Bestandteile einer exemplarischen API-Anfrage an den Car2Go-Server}{table.caption.12}{}}
\citation{tilemill}
\citation{jdbc}
\citation{opencsv}
\@writefile{toc}{\contentsline {subsection}{\numberline {3.1.2}API: Car2Go}{9}{subsection.3.1.2}}
\newlabel{car2go_api}{{3.1.2}{9}{API: Car2Go}{subsection.3.1.2}{}}
\@writefile{toc}{\contentsline {section}{\numberline {3.2}Datensicherung}{9}{section.3.2}}
\@writefile{toc}{\contentsline {subsection}{\numberline {3.2.1}Datenbankanbindung}{9}{subsection.3.2.1}}
\@writefile{toc}{\contentsline {subsection}{\numberline {3.2.2}Datenimport}{9}{subsection.3.2.2}}
\@writefile{lof}{\contentsline {figure}{\numberline {\relax 3.2}{\ignorespaces Sequenzielle Durchf\IeC {\"u}hrung der Datenbankaktualisierung}}{10}{figure.caption.13}}
\newlabel{insert_car2go_datasets}{{\relax 3.2}{10}{Sequenzielle Durchführung der Datenbankaktualisierung}{figure.caption.13}{}}
\@writefile{toc}{\contentsline {subsection}{\numberline {3.2.3}CSV-Export}{10}{subsection.3.2.3}}
\@writefile{toc}{\contentsline {section}{\numberline {3.3}Analyse- und Visualisierungsumgebung}{10}{section.3.3}}
\@writefile{toc}{\contentsline {subsection}{\numberline {3.3.1}Konsoleninterface}{10}{subsection.3.3.1}}
\citation{tomcat}
\citation{openstreetmap}
\@writefile{toc}{\contentsline {subsection}{\numberline {3.3.2}Web-Interface}{11}{subsection.3.3.2}}
\@writefile{toc}{\contentsline {subsection}{\numberline {3.3.3}API: Mapbox.js}{11}{subsection.3.3.3}}
\newlabel{mapbox}{{3.3.3}{11}{API: Mapbox.js}{subsection.3.3.3}{}}
\@writefile{loa}{\contentsline {algorithm}{\numberline {1}{\ignorespaces Exemplarischer Informationsfluss bei der Nutzung der Mapbox-API.\relax }}{11}{algorithm.1}}
\newlabel{mapbox_workflow}{{1}{11}{Exemplarischer Informationsfluss bei der Nutzung der Mapbox-API.\relax }{algorithm.1}{}}
\citation{ajax}
\citation{geojson}
\@writefile{toc}{\contentsline {subsubsection}{\numberline {3.3.3.1}Initiale Verbindung}{12}{subsubsection.3.3.3.1}}
\newlabel{access_token_listing}{{3.1}{12}{Zugriff auf die API der Web-Services}{lstlisting.3.1}{}}
\@writefile{lol}{\contentsline {lstlisting}{\numberline {3.1}Zugriff auf die API der Web-Services.}{12}{lstlisting.3.1}}
\@writefile{toc}{\contentsline {subsubsection}{\numberline {3.3.3.2}Erzeugung der Karte}{12}{subsubsection.3.3.3.2}}
\newlabel{create_map_listing}{{3.2}{12}{Initiierung einer Karte}{lstlisting.3.2}{}}
\@writefile{lol}{\contentsline {lstlisting}{\numberline {3.2}Initiierung einer Karte.}{12}{lstlisting.3.2}}
\citation{leaflet}
\@writefile{toc}{\contentsline {subsubsection}{\numberline {3.3.3.3}Stadtbezirke}{13}{subsubsection.3.3.3.3}}
\newlabel{create_district_layer_listing}{{3.3}{13}{Stadtbezirke in Karte integrieren (GeoJSON-Format)}{lstlisting.3.3}{}}
\@writefile{lol}{\contentsline {lstlisting}{\numberline {3.3}Stadtbezirke in Karte integrieren (GeoJSON-Format).}{13}{lstlisting.3.3}}
\@writefile{toc}{\contentsline {subsubsection}{\numberline {3.3.3.4}Marker}{13}{subsubsection.3.3.3.4}}
\newlabel{create_marker_listing}{{3.4}{13}{Erzeugung einer Markierung (Markers)}{lstlisting.3.4}{}}
\@writefile{lol}{\contentsline {lstlisting}{\numberline {3.4}Erzeugung einer Markierung (Markers).}{13}{lstlisting.3.4}}
\@writefile{toc}{\contentsline {subsubsection}{\numberline {3.3.3.5}Umwandlung: CSV-Daten zu Marker-Objekten}{13}{subsubsection.3.3.3.5}}
\citation{foursquare_developer}
\citation{cartodb}
\newlabel{omnivore_listing}{{3.5}{14}{Analysedaten mittels \textit {Leaflet.js} aus CSV-Dateien laden}{lstlisting.3.5}{}}
\@writefile{lol}{\contentsline {lstlisting}{\numberline {3.5}Analysedaten mittels \textit  {Leaflet.js} aus CSV-Dateien laden.}{14}{lstlisting.3.5}}
\@writefile{toc}{\contentsline {subsubsection}{\numberline {3.3.3.6}Foursquare-Request}{14}{subsubsection.3.3.3.6}}
\newlabel{foursquare_listing}{{3.6}{14}{Exemplarische Anfrage an die Foursquare-Plattform}{lstlisting.3.6}{}}
\@writefile{lol}{\contentsline {lstlisting}{\numberline {3.6}Exemplarische Anfrage an die Foursquare-Plattform.}{14}{lstlisting.3.6}}
\@writefile{toc}{\contentsline {subsection}{\numberline {3.3.4}CartoDB}{15}{subsection.3.3.4}}
\@writefile{toc}{\contentsline {chapter}{\numberline {4}Datenanalyse}{16}{chapter.4}}
\@writefile{lof}{\addvspace {10\p@ }}
\@writefile{lot}{\addvspace {10\p@ }}
\@writefile{lol}{\addvspace {10\p@ }}
\@writefile{loa}{\addvspace {10\p@ }}
\newlabel{Datenanalyse}{{4}{16}{Datenanalyse}{chapter.4}{}}
\newlabel{formal_definition}{{4}{16}{Datenanalyse}{chapter.4}{}}
\@writefile{toc}{\contentsline {section}{\numberline {4.1}Formelle Definitionen}{16}{section.4.1}}
\@writefile{toc}{\contentsline {section}{\numberline {4.2}Analyse der Nachfrage}{17}{section.4.2}}
\@writefile{lof}{\contentsline {figure}{\numberline {\relax 4.2}{\ignorespaces Tageszeiten}}{17}{figure.caption.14}}
\newlabel{demand_time_analyse}{{\relax 4.2}{17}{Tageszeiten}{figure.caption.14}{}}
\newlabel{tab:fahrten}{{\caption@xref {tab:fahrten}{ on input line 46}}{17}{Analyse der Nachfrage}{figure.caption.14}{}}
\@writefile{lot}{\contentsline {table}{\numberline {\relax 4.1}{\ignorespaces text for list of tables}}{17}{figure.caption.14}}
\@writefile{toc}{\contentsline {subsection}{\numberline {4.2.1}Analysen zu unterschiedlichen Tageszeiten}{18}{subsection.4.2.1}}
\@writefile{lot}{\contentsline {table}{\numberline {\relax 4.2}{\ignorespaces Nachfrage nach Fahrzeugen zu unterschiedlichen Uhrzeiten}}{18}{table.caption.15}}
\newlabel{time_demand_analyse}{{\relax 4.2}{18}{Nachfrage nach Fahrzeugen zu unterschiedlichen Uhrzeiten}{table.caption.15}{}}
\@writefile{toc}{\contentsline {subsection}{\numberline {4.2.2}Nachfrage in Berliner Stadtbezirken}{18}{subsection.4.2.2}}
\@writefile{lot}{\contentsline {table}{\numberline {\relax 4.3}{\ignorespaces Anzahl abgestellter Fahrzeuge in Berliner Stadtbezirken.}}{18}{table.caption.16}}
\newlabel{district_demand_analyse}{{\relax 4.3}{18}{Anzahl abgestellter Fahrzeuge in Berliner Stadtbezirken}{table.caption.16}{}}
\citation{berlin_data}
\@writefile{toc}{\contentsline {subsection}{\numberline {4.2.3}Nachfrage an POIs}{19}{subsection.4.2.3}}
\@writefile{lof}{\contentsline {figure}{\numberline {\relax 4.3}{\ignorespaces Fahrzeugnachfrage am Berliner Hauptbahnhof}}{19}{figure.caption.17}}
\newlabel{screenshot_poi_demand}{{\relax 4.3}{19}{Fahrzeugnachfrage am Berliner Hauptbahnhof}{figure.caption.17}{}}
\@writefile{toc}{\contentsline {section}{\numberline {4.3}Nutzungsdauer und zur\IeC {\"u}ckgelegte Distanzen}{19}{section.4.3}}
\citation{bewohnerzahlenBerlin:website}
\@writefile{toc}{\contentsline {chapter}{\numberline {5}Zusammenfassung und Fazit}{20}{chapter.5}}
\@writefile{lof}{\addvspace {10\p@ }}
\@writefile{lot}{\addvspace {10\p@ }}
\@writefile{lol}{\addvspace {10\p@ }}
\@writefile{loa}{\addvspace {10\p@ }}
\newlabel{sec:schlussfolgerung}{{5}{20}{Zusammenfassung und Fazit}{chapter.5}{}}
\@writefile{toc}{\contentsline {section}{\numberline {5.1}L\IeC {\"o}sungsansatz der Seminararbeit}{20}{section.5.1}}
\@writefile{toc}{\contentsline {section}{\numberline {5.2}Ergebnisse der Arbeit}{20}{section.5.2}}
\newlabel{Kritik}{{5.2}{20}{Ergebnisse der Arbeit}{section.5.2}{}}
\citation{ampeln:website}
\@writefile{toc}{\contentsline {section}{\numberline {5.3}Kritik}{21}{section.5.3}}
\@writefile{toc}{\contentsline {subsection}{\numberline {5.3.1}Kurzer Analysezeitraum}{21}{subsection.5.3.1}}
\@writefile{toc}{\contentsline {subsection}{\numberline {5.3.2}Ungenaue Informationen \IeC {\"u}ber Abschluss einer Fahrt}{21}{subsection.5.3.2}}
\@writefile{toc}{\contentsline {section}{\numberline {5.4}Ausblick}{21}{section.5.4}}
\@writefile{toc}{\contentsline {subsection}{\numberline {5.4.1}Generierung gr\IeC {\"o}\IeC {\ss }erer Datenmengen}{21}{subsection.5.4.1}}
\@writefile{toc}{\contentsline {subsection}{\numberline {5.4.2}Ber\IeC {\"u}cksichtigung von Wartezeiten}{21}{subsection.5.4.2}}
\citation{*}
\@writefile{toc}{\contentsline {subsection}{\numberline {5.4.3}Aufladestationen f\IeC {\"u}r E-Cars}{22}{subsection.5.4.3}}
\@writefile{toc}{\contentsline {subsection}{\numberline {5.4.4}Mobile Anwendung}{22}{subsection.5.4.4}}
\@writefile{lof}{\contentsline {figure}{\numberline {\relax 5.1}{\ignorespaces Portierung auf eine mobile Plattform (Android)}}{22}{figure.caption.18}}
\newlabel{mobile_app}{{\relax 5.1}{22}{Portierung auf eine mobile Plattform (Android)}{figure.caption.18}{}}
\bibdata{bibliography/WissArbeit}
\bibcite{statisik:interesseUndNutzungCarsharing}{{1}{a}{{sta}}{{??}}}
\bibcite{bcs:jahresbilanz2013}{{2}{bcs}{{??}}{{}}}
\bibcite{bewohnerzahlenBerlin:website}{{3}{bew}{{??}}{{}}}
\bibcite{statisik:carsharingAnbieterVergleich}{{4}{b}{{sta}}{{??}}}
\bibcite{ampeln:website}{{5}{amp}{{??}}{{}}}
\bibcite{car2go}{{6}{a}{{car}}{{??}}}
\bibcite{cartodb}{{7}{b}{{car}}{{??}}}
\bibcite{tilemill}{{8}{til}{{??}}{{}}}
\bibcite{foursquare_developer}{{9}{fou}{{??}}{{}}}
\bibcite{geojson}{{10}{geo}{{??}}{{}}}
\bibcite{tomcat}{{11}{tom}{{??}}{{}}}
\bibcite{jdbc}{{12}{jdb}{{??}}{{}}}
\bibcite{leaflet}{{13}{lea}{{??}}{{}}}
\@writefile{toc}{\contentsline {chapter}{Literaturverzeichnis}{I}{chapter*.19}}
\@writefile{lof}{\addvspace {10\p@ }}
\@writefile{lot}{\addvspace {10\p@ }}
\@writefile{lol}{\addvspace {10\p@ }}
\@writefile{loa}{\addvspace {10\p@ }}
\bibcite{oauth}{{14}{oau}{{??}}{{}}}
\bibcite{openstreetmap}{{15}{a}{{ope}}{{??}}}
\bibcite{opencsv}{{16}{b}{{ope}}{{??}}}
\bibcite{berlin_data}{{17}{ber}{{??}}{{}}}
\bibcite{ajax}{{18}{aja}{{??}}{{}}}
\bibcite{deAlmeida}{{19}{2011}{{de~Almeida~Correia and Antunes}}{{de~Almeida~Correia and Antunes}}}
\bibcite{jorgecomparing}{{20}{2013}{{Jorge et~al.}}{{Jorge, Correia, and Barnhart}}}
\bibcite{shimrat1962algorithm}{{21}{1962}{{Shimrat}}{{Shimrat}}}
\bibcite{wagnerdata}{{22}{2015a}{{Wagner et~al.}}{{Wagner, Brandt, and Neumann}}}
\bibcite{wagner2015free}{{23}{2015b}{{Wagner et~al.}}{{Wagner, Brandt, and Neumann}}}
\@writefile{toc}{\contentsline {chapter}{Anhang}{1}{appendix*.20}}
\@writefile{lof}{\addvspace {10\p@ }}
\@writefile{lot}{\addvspace {10\p@ }}
\@writefile{lol}{\addvspace {10\p@ }}
\@writefile{loa}{\addvspace {10\p@ }}
\newlabel{sec:anhang}{{5.4.4}{1}{Anhang}{appendix*.20}{}}
\@writefile{toc}{\contentsline {section}{\numberline {A.1}Tabellen}{1}{section.A.1}}
\@writefile{toc}{\contentsline {subsection}{\numberline {A.1.1}Car2Go-API\FN@sf@gobble@opt  {\textbf  {Typen:} GET(G), POST(P), DELETE(D)}\FN@sf@gobble@opt  {\textbf  {Security:} public(+), private(-)}}{1}{subsection.A.1.1}}
\@writefile{lot}{\contentsline {table}{\numberline {\relax A.1}{\ignorespaces Funktionsumfang der Car2Go-API}}{1}{table.caption.21}}
\newlabel{car2go_api_table}{{\relax A.1}{1}{Funktionsumfang der Car2Go-API}{table.caption.21}{}}
\@writefile{lot}{\contentsline {table}{\numberline {\relax A.2}{\ignorespaces Exemplarische Anfragen an die Car2Go-API}}{1}{table.caption.22}}
\newlabel{car2go_api_examples}{{\relax A.2}{1}{Exemplarische Anfragen an die Car2Go-API}{table.caption.22}{}}
\@writefile{toc}{\contentsline {section}{\numberline {A.2}Repository}{2}{section.A.2}}
\@writefile{toc}{\contentsline {section}{\numberline {A.3}Screenshots}{2}{section.A.3}}
\newlabel{mapbox_}{{A.3}{2}{Screenshots}{section.A.3}{}}
\newlabel{cartodb_data_table}{{A.3}{2}{Screenshots}{figure.caption.24}{}}
\newlabel{cartodb_vehicle_count}{{A.3}{2}{Screenshots}{figure.caption.25}{}}
\@writefile{lof}{\contentsline {figure}{\numberline {\relax A.1}{\ignorespaces Mapbox: Siegess\IeC {\"a}ule (Berlin)}}{3}{figure.caption.23}}
\newlabel{ fig7}{{\caption@xref { fig7}{ on input line 69}}{4}{Screenshots}{figure.caption.24}{}}
\@writefile{lof}{\contentsline {figure}{\numberline {\relax A.2}{\ignorespaces CartoDB: PostgreSQL-Schnittstelle}}{4}{figure.caption.24}}
\newlabel{cartodb_postgresql_interface}{{\relax A.2}{4}{CartoDB: PostgreSQL-Schnittstelle}{figure.caption.24}{}}
\@writefile{lof}{\contentsline {figure}{\numberline {\relax A.3}{\ignorespaces Mapbox-Funktionalit\IeC {\"a}t: Konstruktion einer Fl\IeC {\"a}che}}{4}{figure.caption.24}}
\newlabel{mapbox_area_drawing}{{\relax A.3}{4}{Mapbox-Funktionalität: Konstruktion einer Fläche}{figure.caption.24}{}}
\@writefile{lof}{\contentsline {figure}{\numberline {\relax A.4}{\ignorespaces CartoDB: CSS-Editor}}{4}{figure.caption.24}}
\newlabel{cartodb_css_editor}{{\relax A.4}{4}{CartoDB: CSS-Editor}{figure.caption.24}{}}
\@writefile{lof}{\contentsline {figure}{\numberline {\relax A.5}{\ignorespaces CartoDB: Visualization-Mode}}{4}{figure.caption.24}}
\newlabel{cartodb_visualization}{{\relax A.5}{4}{CartoDB: Visualization-Mode}{figure.caption.24}{}}
\@writefile{lof}{\contentsline {figure}{\numberline {\relax A.6}{\ignorespaces CartoDB: Daten-Tabellen}}{5}{figure.caption.25}}
\@writefile{lof}{\contentsline {figure}{\numberline {\relax A.7}{\ignorespaces CartoDB: Akkumulierte Fahrzeugnachfrage (Berlin)}}{6}{figure.caption.26}}
