"latitude","longitude","date","fuel","interior_state","exterior_state","free_parking_slots"
"52.45268","13.44052","03/09/2015 23:06:23","100","GOOD","UNACCEPTABLE","0"
"52.4628","13.31523","03/09/2015 10:58:58","100","GOOD","GOOD","0"
"52.47531","13.29555","03/09/2015 20:38:55","100","UNACCEPTABLE","UNACCEPTABLE","0"
"52.49783","13.29517","03/09/2015 08:49:15","100","GOOD","GOOD","0"
"52.50595","13.32306","03/09/2015 22:33:07","100","UNACCEPTABLE","UNACCEPTABLE","0"
"52.51604","13.31844","03/09/2015 03:07:06","100","UNACCEPTABLE","UNACCEPTABLE","0"
"52.44679","13.29038","03/09/2015 16:16:08","51","GOOD","GOOD","0"
"52.48962","13.37993","03/09/2015 02:49:33","66","GOOD","GOOD","0"
"52.49064","13.37928","03/09/2015 10:22:53","57","GOOD","UNACCEPTABLE","0"
"52.49537","13.32984","03/09/2015 15:47:15","54","GOOD","GOOD","0"
"52.49916","13.32851","03/09/2015 10:46:35","57","GOOD","GOOD","0"
"52.50617","13.35688","03/09/2015 15:15:21","54","GOOD","GOOD","0"
"52.50643","13.32586","03/09/2015 09:47:54","60","GOOD","GOOD","0"
"52.50905","13.26337","03/09/2015 23:52:50","51","GOOD","GOOD","0"
"52.5111","13.26924","03/09/2015 20:42:01","51","GOOD","GOOD","0"
"52.51248","13.31956","03/09/2015 07:43:31","66","GOOD","UNACCEPTABLE","0"