"latitude","longitude","car_plate","date","cartodb_date","fuel","interior_state","exterior_state","free_parking_slots"
"52.45803","13.29227","B-GO2018","03/09/2015 13:11:52","2015-2-9T13:11:52Z","100","UNACCEPTABLE","UNACCEPTABLE","0"
"52.46345","13.34216","B-GO2018","03/09/2015 12:58:30","2015-2-9T12:58:30Z","100","GOOD","GOOD","0"
"52.4739","13.44489","B-GO2018","03/09/2015 23:58:02","2015-2-9T23:58:2Z","96","UNACCEPTABLE","UNACCEPTABLE","0"
"52.49311","13.44448","B-GO2018","03/09/2015 04:10:02","2015-2-9T4:10:2Z","100","UNACCEPTABLE","UNACCEPTABLE","0"
"52.50079","13.42331","B-GO2018","03/09/2015 22:04:14","2015-2-9T22:4:14Z","96","GOOD","GOOD","0"
"52.50298","13.43111","B-GO2018","03/09/2015 17:43:55","2015-2-9T17:43:55Z","100","GOOD","GOOD","0"
"52.53127","13.40343","B-GO2018","03/09/2015 16:53:49","2015-2-9T16:53:49Z","100","GOOD","GOOD","0"
