"latitude","longitude","car_plate","date","cartodb_date","fuel","interior_state","exterior_state","free_parking_slots"
"52.45912","13.44792","B-GO2027","03/09/2015 23:58:01","2015-2-9T23:58:1Z","100","GOOD","GOOD","0"
"52.56852","13.36414","B-GO2027","03/09/2015 00:12:39","2015-2-9T0:12:39Z","39","GOOD","GOOD","0"
"52.57118","13.33","B-GO2027","03/09/2015 13:04:39","2015-2-9T13:4:39Z","100","GOOD","GOOD","0"
