"latitude","longitude","car_plate","date","cartodb_date","fuel","interior_state","exterior_state","free_parking_slots"
"52.46224","13.47105","B-GO2697","03/09/2015 15:33:53","2015-2-9T15:33:53Z","100","UNACCEPTABLE","UNACCEPTABLE","0"
"52.48824","13.42572","B-GO2697","03/09/2015 23:31:08","2015-2-9T23:31:8Z","100","GOOD","GOOD","0"
"52.50742","13.4361","B-GO2697","03/09/2015 14:44:27","2015-2-9T14:44:27Z","100","GOOD","GOOD","0"
"52.51343","13.39717","B-GO2697","03/09/2015 12:30:40","2015-2-9T12:30:40Z","100","UNACCEPTABLE","UNACCEPTABLE","0"
"52.51351","13.39715","B-GO2697","03/09/2015 10:15:41","2015-2-9T10:15:41Z","100","UNACCEPTABLE","UNACCEPTABLE","0"
"52.53392","13.42528","B-GO2697","03/09/2015 00:04:22","2015-2-9T0:4:22Z","100","GOOD","GOOD","0"
