"latitude","longitude","car_plate","date","cartodb_date","fuel","interior_state","exterior_state","free_parking_slots"
"52.43805","13.54961","B-GO2540","03/09/2015 21:35:43","2015-2-9T21:35:43Z","12","GOOD","GOOD","0"
"52.53036","13.45859","B-GO2540","03/09/2015 07:21:55","2015-2-9T7:21:55Z","15","GOOD","GOOD","0"
"52.54034","13.44171","B-GO2540","03/09/2015 18:03:27","2015-2-9T18:3:27Z","15","GOOD","GOOD","0"
