"latitude","longitude","car_plate","date","cartodb_date","fuel","interior_state","exterior_state","free_parking_slots"
"52.49899","13.34429","B-GO2756","03/09/2015 00:03:22","2015-2-9T0:3:22Z","54","GOOD","GOOD","0"
"52.5402","13.38545","B-GO2756","03/09/2015 08:01:02","2015-2-9T8:1:2Z","51","GOOD","GOOD","0"
"52.54625","13.36325","B-GO2756","03/09/2015 15:04:04","2015-2-9T15:4:4Z","48","GOOD","GOOD","0"
"52.54824","13.36712","B-GO2756","03/09/2015 09:58:11","2015-2-9T9:58:11Z","51","UNACCEPTABLE","UNACCEPTABLE","0"
"52.54853","13.36611","B-GO2756","03/09/2015 08:28:46","2015-2-9T8:28:46Z","51","UNACCEPTABLE","UNACCEPTABLE","0"
"52.54941","13.36465","B-GO2756","03/09/2015 12:26:34","2015-2-9T12:26:34Z","48","GOOD","GOOD","0"
"52.55128","13.3856","B-GO2756","03/09/2015 17:21:15","2015-2-9T17:21:15Z","48","UNACCEPTABLE","UNACCEPTABLE","0"
"52.57056","13.31929","B-GO2756","03/09/2015 19:32:21","2015-2-9T19:32:21Z","45","GOOD","GOOD","0"
