"latitude","longitude","car_plate","date","cartodb_date","fuel","interior_state","exterior_state","free_parking_slots"
"52.57555","13.33303","B-GO2156","03/09/2015 14:05:22","2015-2-9T14:5:22Z","45","GOOD","GOOD","0"
"52.57687","13.36156","B-GO2156","03/09/2015 10:29:06","2015-2-9T10:29:6Z","45","UNACCEPTABLE","UNACCEPTABLE","0"
