"latitude","longitude","car_plate","date","cartodb_date","fuel","interior_state","exterior_state","free_parking_slots"
"52.41797","13.39506","B-GO2464","03/09/2015 05:56:26","2015-2-9T5:56:26Z","21","GOOD","GOOD","0"
"52.45834","13.39514","B-GO2464","03/09/2015 00:18:52","2015-2-9T0:18:52Z","24","UNACCEPTABLE","UNACCEPTABLE","0"
"52.46825","13.33283","B-GO2464","03/09/2015 23:58:02","2015-2-9T23:58:2Z","12","UNACCEPTABLE","UNACCEPTABLE","0"
"52.47268","13.3353","B-GO2464","03/09/2015 21:26:27","2015-2-9T21:26:27Z","15","GOOD","GOOD","0"
"52.48395","13.33138","B-GO2464","03/09/2015 10:24:57","2015-2-9T10:24:57Z","18","UNACCEPTABLE","GOOD","0"
"52.49184","13.35334","B-GO2464","03/09/2015 19:08:41","2015-2-9T19:8:41Z","15","GOOD","GOOD","0"
"52.52136","13.35129","B-GO2464","03/09/2015 17:53:11","2015-2-9T17:53:11Z","15","GOOD","GOOD","0"
"52.52374","13.36719","B-GO2464","03/09/2015 08:28:46","2015-2-9T8:28:46Z","18","GOOD","GOOD","0"
"52.52571","13.32226","B-GO2464","03/09/2015 07:13:42","2015-2-9T7:13:42Z","21","GOOD","GOOD","0"
