"latitude","longitude","car_plate","date","cartodb_date","fuel","interior_state","exterior_state","free_parking_slots"
"52.44308","13.35591","B-GO3388","03/09/2015 00:00:16","2015-2-9T0:0:16Z","45","GOOD","GOOD","0"
"52.44311","13.3559","B-GO3388","03/09/2015 15:33:53","2015-2-9T15:33:53Z","42","GOOD","GOOD","0"
