"latitude","longitude","car_plate","date","cartodb_date","fuel","interior_state","exterior_state","free_parking_slots"
"52.41847","13.37706","B-GO2672","03/09/2015 18:43:58","2015-2-9T18:43:58Z","48","GOOD","UNACCEPTABLE","0"
"52.43418","13.3023","B-GO2672","03/09/2015 22:40:24","2015-2-9T22:40:24Z","48","UNACCEPTABLE","UNACCEPTABLE","0"
"52.44718","13.30616","B-GO2672","03/09/2015 21:21:17","2015-2-9T21:21:17Z","48","GOOD","GOOD","0"
"52.45158","13.32043","B-GO2672","03/09/2015 19:34:25","2015-2-9T19:34:25Z","48","GOOD","UNACCEPTABLE","0"
"52.49492","13.39759","B-GO2672","03/09/2015 23:23:55","2015-2-9T23:23:55Z","45","GOOD","GOOD","0"
"52.561","13.33576","B-GO2672","03/09/2015 04:02:49","2015-2-9T4:2:49Z","54","GOOD","GOOD","0"
"52.5765","13.36059","B-GO2672","03/09/2015 17:59:21","2015-2-9T17:59:21Z","51","GOOD","GOOD","0"
