"latitude","longitude","car_plate","date","cartodb_date","fuel","interior_state","exterior_state","free_parking_slots"
"52.41692","13.44756","B-GO3372","03/09/2015 22:16:37","2015-2-9T22:16:37Z","100","GOOD","GOOD","0"
"52.42337","13.44317","B-GO3372","03/09/2015 20:51:19","2015-2-9T20:51:19Z","100","GOOD","GOOD","0"
"52.53842","13.38326","B-GO3372","03/09/2015 09:13:56","2015-2-9T9:13:56Z","18","GOOD","GOOD","0"
"52.55702","13.37209","B-GO3372","03/09/2015 01:54:47","2015-2-9T1:54:47Z","18","UNACCEPTABLE","UNACCEPTABLE","0"
"52.56303","13.36667","B-GO3372","03/09/2015 00:03:22","2015-2-9T0:3:22Z","21","GOOD","GOOD","0"
