"latitude","longitude","car_plate","date","cartodb_date","fuel","interior_state","exterior_state","free_parking_slots"
"52.45027","13.34489","B-GO3007","03/09/2015 05:35:48","2015-2-9T5:35:48Z","69","UNACCEPTABLE","GOOD","0"
"52.45355","13.31258","B-GO3007","03/09/2015 09:48:57","2015-2-9T9:48:57Z","69","GOOD","GOOD","0"
"52.47007","13.43738","B-GO3007","03/09/2015 14:07:27","2015-2-9T14:7:27Z","66","GOOD","GOOD","0"
"52.4965","13.35778","B-GO3007","03/09/2015 22:33:09","2015-2-9T22:33:9Z","63","UNACCEPTABLE","UNACCEPTABLE","0"
"52.51955","13.39958","B-GO3007","03/09/2015 18:05:31","2015-2-9T18:5:31Z","63","GOOD","GOOD","0"
"52.52323","13.35374","B-GO3007","03/09/2015 23:15:41","2015-2-9T23:15:41Z","60","GOOD","GOOD","0"
"52.56811","13.30934","B-GO3007","03/09/2015 05:06:51","2015-2-9T5:6:51Z","75","GOOD","GOOD","0"
