"latitude","longitude","car_plate","date","cartodb_date","fuel","interior_state","exterior_state","free_parking_slots"
"52.43707","13.30782","B-GO2432","03/09/2015 23:58:02","2015-2-9T23:58:2Z","21","GOOD","GOOD","0"
"52.5009","13.35281","B-GO2432","03/09/2015 00:28:08","2015-2-9T0:28:8Z","27","GOOD","GOOD","0"
"52.50262","13.35606","B-GO2432","03/09/2015 20:35:50","2015-2-9T20:35:50Z","24","GOOD","GOOD","0"
"52.50546","13.34497","B-GO2432","03/09/2015 11:50:33","2015-2-9T11:50:33Z","24","GOOD","GOOD","0"
"52.50667","13.33322","B-GO2432","03/09/2015 06:34:35","2015-2-9T6:34:35Z","27","GOOD","GOOD","0"
"52.50719","13.3339","B-GO2432","03/09/2015 16:20:15","2015-2-9T16:20:15Z","24","GOOD","GOOD","0"
