"latitude","longitude","car_plate","date","cartodb_date","fuel","interior_state","exterior_state","free_parking_slots"
"52.48006","13.3043","B-GO3408","03/09/2015 13:25:13","2015-2-9T13:25:13Z","100","GOOD","GOOD","0"
"52.50277","13.40686","B-GO3408","03/09/2015 20:05:58","2015-2-9T20:5:58Z","100","GOOD","GOOD","0"
"52.51608","13.32396","B-GO3408","03/09/2015 11:43:19","2015-2-9T11:43:19Z","100","GOOD","GOOD","0"
"52.52154","13.33038","B-GO3408","03/09/2015 16:48:40","2015-2-9T16:48:40Z","100","GOOD","GOOD","0"
"52.52173","13.33043","B-GO3408","03/09/2015 11:04:07","2015-2-9T11:4:7Z","100","GOOD","GOOD","0"
"52.52733","13.33549","B-GO3408","03/09/2015 04:47:12","2015-2-9T4:47:12Z","100","GOOD","GOOD","0"
"52.52736","13.33543","B-GO3408","03/09/2015 01:00:11","2015-2-9T1:0:11Z","100","GOOD","GOOD","0"
"52.53011","13.42452","B-GO3408","03/09/2015 18:42:57","2015-2-9T18:42:57Z","100","GOOD","GOOD","0"
"52.53129","13.3344","B-GO3408","03/09/2015 15:26:41","2015-2-9T15:26:41Z","100","GOOD","GOOD","0"
"52.54273","13.41882","B-GO3408","03/09/2015 17:55:14","2015-2-9T17:55:14Z","100","UNACCEPTABLE","UNACCEPTABLE","0"
"52.54845","13.45203","B-GO3408","03/09/2015 20:30:41","2015-2-9T20:30:41Z","100","GOOD","GOOD","0"
