"latitude","longitude","car_plate","date","cartodb_date","fuel","interior_state","exterior_state","free_parking_slots"
"52.41918","13.38427","B-GO3302","03/09/2015 20:45:07","2015-2-9T20:45:7Z","27","GOOD","GOOD","0"
"52.41921","13.38415","B-GO3302","03/09/2015 06:00:32","2015-2-9T6:0:32Z","27","GOOD","GOOD","0"
"52.41924","13.38677","B-GO3302","03/09/2015 23:15:40","2015-2-9T23:15:40Z","27","GOOD","UNACCEPTABLE","0"
"52.43102","13.38573","B-GO3302","03/09/2015 00:13:41","2015-2-9T0:13:41Z","27","GOOD","GOOD","0"
