"latitude","longitude","car_plate","date","cartodb_date","fuel","interior_state","exterior_state","free_parking_slots"
"52.45148","13.43501","B-GO2843","03/09/2015 18:33:42","2015-2-9T18:33:42Z","100","GOOD","GOOD","0"
"52.45269","13.4372","B-GO2843","03/09/2015 18:14:47","2015-2-9T18:14:47Z","100","GOOD","GOOD","0"
"52.45329","13.4367","B-GO2843","03/09/2015 13:09:48","2015-2-9T13:9:48Z","100","GOOD","GOOD","0"
"52.46338","13.43594","B-GO2843","03/09/2015 22:15:34","2015-2-9T22:15:34Z","100","GOOD","GOOD","0"
"52.46527","13.43256","B-GO2843","03/09/2015 14:43:26","2015-2-9T14:43:26Z","100","GOOD","GOOD","0"
"52.52518","13.42852","B-GO2843","03/09/2015 23:56:59","2015-2-9T23:56:59Z","100","GOOD","GOOD","0"
