"latitude","longitude","car_plate","date","cartodb_date","fuel","interior_state","exterior_state","free_parking_slots"
"52.48907","13.31944","B-GO2991","03/09/2015 19:53:36","2015-2-9T19:53:36Z","100","UNACCEPTABLE","GOOD","0"
"52.48992","13.31945","B-GO2991","03/09/2015 23:58:02","2015-2-9T23:58:2Z","100","GOOD","GOOD","0"
"52.52181","13.34692","B-GO2991","03/09/2015 22:49:46","2015-2-9T22:49:46Z","100","GOOD","GOOD","0"
"52.52315","13.40903","B-GO2991","03/09/2015 17:48:03","2015-2-9T17:48:3Z","100","UNACCEPTABLE","UNACCEPTABLE","0"
"52.56863","13.3095","B-GO2991","03/09/2015 18:56:20","2015-2-9T18:56:20Z","100","GOOD","GOOD","0"
"52.56928","13.31246","B-GO2991","03/09/2015 15:43:10","2015-2-9T15:43:10Z","100","GOOD","GOOD","0"
"52.5732","13.31389","B-GO2991","03/09/2015 09:04:41","2015-2-9T9:4:41Z","100","GOOD","GOOD","0"
