"latitude","longitude","car_plate","date","cartodb_date","fuel","interior_state","exterior_state","free_parking_slots"
"52.46024","13.4357","B-GO2332","03/09/2015 21:38:49","2015-2-9T21:38:49Z","42","GOOD","GOOD","0"
"52.467","13.33748","B-GO2332","03/09/2015 04:42:03","2015-2-9T4:42:3Z","51","UNACCEPTABLE","UNACCEPTABLE","0"
"52.49131","13.37933","B-GO2332","03/09/2015 07:26:01","2015-2-9T7:26:1Z","51","GOOD","GOOD","0"
"52.50507","13.37387","B-GO2332","03/09/2015 08:33:53","2015-2-9T8:33:53Z","51","GOOD","GOOD","0"
"52.5073","13.35213","B-GO2332","03/09/2015 16:52:47","2015-2-9T16:52:47Z","48","GOOD","GOOD","0"
"52.51099","13.30765","B-GO2332","03/09/2015 21:10:53","2015-2-9T21:10:53Z","48","UNACCEPTABLE","GOOD","0"
"52.51261","13.3074","B-GO2332","03/09/2015 17:57:17","2015-2-9T17:57:17Z","48","GOOD","UNACCEPTABLE","0"
