"latitude","longitude","car_plate","date","cartodb_date","fuel","interior_state","exterior_state","free_parking_slots"
"52.43374","13.3386","B-GO2926","03/09/2015 23:43:33","2015-2-9T23:43:33Z","42","GOOD","UNACCEPTABLE","0"
"52.45242","13.43626","B-GO2926","03/09/2015 20:12:07","2015-2-9T20:12:7Z","45","GOOD","GOOD","0"
"52.46844","13.30935","B-GO2926","03/09/2015 06:27:22","2015-2-9T6:27:22Z","51","UNACCEPTABLE","UNACCEPTABLE","0"
"52.49516","13.4052","B-GO2926","03/09/2015 15:55:28","2015-2-9T15:55:28Z","48","UNACCEPTABLE","UNACCEPTABLE","0"
"52.49537","13.41678","B-GO2926","03/09/2015 16:15:06","2015-2-9T16:15:6Z","48","UNACCEPTABLE","UNACCEPTABLE","0"
