"latitude","longitude","car_plate","date","cartodb_date","fuel","interior_state","exterior_state","free_parking_slots"
"52.47209","13.31323","B-GO2339","03/09/2015 23:46:39","2015-2-9T23:46:39Z","100","GOOD","GOOD","0"
"52.47222","13.31333","B-GO2339","03/09/2015 21:22:19","2015-2-9T21:22:19Z","100","GOOD","GOOD","0"
"52.47737","13.32063","B-GO2339","03/09/2015 20:51:18","2015-2-9T20:51:18Z","100","GOOD","GOOD","0"
"52.47874","13.32339","B-GO2339","03/09/2015 21:46:40","2015-2-9T21:46:40Z","100","GOOD","GOOD","0"
"52.48089","13.34601","B-GO2339","03/09/2015 18:39:51","2015-2-9T18:39:51Z","100","UNACCEPTABLE","UNACCEPTABLE","0"
"52.49501","13.33731","B-GO2339","03/09/2015 18:17:52","2015-2-9T18:17:52Z","100","GOOD","GOOD","0"
"52.49518","13.33721","B-GO2339","03/09/2015 15:43:09","2015-2-9T15:43:9Z","18","GOOD","GOOD","0"
"52.49744","13.36741","B-GO2339","03/09/2015 20:06:59","2015-2-9T20:6:59Z","100","GOOD","GOOD","0"
"52.50102","13.34987","B-GO2339","03/09/2015 14:23:55","2015-2-9T14:23:55Z","18","GOOD","GOOD","0"
"52.52245","13.28753","B-GO2339","03/09/2015 16:56:54","2015-2-9T16:56:54Z","15","GOOD","GOOD","0"
"52.53042","13.34318","B-GO2339","03/09/2015 06:34:34","2015-2-9T6:34:34Z","21","GOOD","GOOD","0"
