"latitude","longitude","car_plate","date","cartodb_date","fuel","interior_state","exterior_state","free_parking_slots"
"52.47521","13.32214","B-GO2523","03/09/2015 22:28:59","2015-2-9T22:28:59Z","60","GOOD","GOOD","0"
"52.4933","13.47335","B-GO2523","03/09/2015 04:28:39","2015-2-9T4:28:39Z","78","UNACCEPTABLE","UNACCEPTABLE","0"
"52.52854","13.41894","B-GO2523","03/09/2015 10:54:51","2015-2-9T10:54:51Z","75","GOOD","GOOD","0"
"52.53355","13.45749","B-GO2523","03/09/2015 17:32:36","2015-2-9T17:32:36Z","69","GOOD","UNACCEPTABLE","0"
"52.53566","13.41989","B-GO2523","03/09/2015 13:17:00","2015-2-9T13:17:0Z","72","GOOD","GOOD","0"
"52.53754","13.44908","B-GO2523","03/09/2015 18:06:32","2015-2-9T18:6:32Z","69","GOOD","UNACCEPTABLE","0"
"52.53757","13.2961","B-GO2523","03/09/2015 19:22:05","2015-2-9T19:22:5Z","63","UNACCEPTABLE","UNACCEPTABLE","0"
"52.53764","13.29526","B-GO2523","03/09/2015 21:15:06","2015-2-9T21:15:6Z","60","GOOD","GOOD","0"
"52.53915","13.45152","B-GO2523","03/09/2015 15:20:31","2015-2-9T15:20:31Z","69","GOOD","UNACCEPTABLE","0"
"52.54569","13.30224","B-GO2523","03/09/2015 18:52:13","2015-2-9T18:52:13Z","63","UNACCEPTABLE","UNACCEPTABLE","0"
