"latitude","longitude","car_plate","date","cartodb_date","fuel","interior_state","exterior_state","free_parking_slots"
"52.44763","13.37378","B-GO2391","03/09/2015 00:00:16","2015-2-9T0:0:16Z","54","GOOD","GOOD","0"
"52.45134","13.43458","B-GO2391","03/09/2015 07:29:09","2015-2-9T7:29:9Z","51","GOOD","GOOD","0"
"52.48491","13.36252","B-GO2391","03/09/2015 15:03:02","2015-2-9T15:3:2Z","51","UNACCEPTABLE","UNACCEPTABLE","0"
"52.50144","13.41595","B-GO2391","03/09/2015 19:47:26","2015-2-9T19:47:26Z","48","UNACCEPTABLE","GOOD","0"
"52.51003","13.46167","B-GO2391","03/09/2015 20:13:10","2015-2-9T20:13:10Z","48","GOOD","GOOD","0"
