"latitude","longitude","car_plate","date","cartodb_date","fuel","interior_state","exterior_state","free_parking_slots"
"52.50713","13.32402","B-GO2348","03/09/2015 09:41:43","2015-2-9T9:41:43Z","57","UNACCEPTABLE","UNACCEPTABLE","0"
"52.51549","13.33924","B-GO2348","03/09/2015 23:58:02","2015-2-9T23:58:2Z","57","GOOD","GOOD","0"
"52.51971","13.25364","B-GO2348","03/09/2015 03:57:40","2015-2-9T3:57:40Z","57","UNACCEPTABLE","UNACCEPTABLE","0"
