"latitude","longitude","car_plate","date","cartodb_date","fuel","interior_state","exterior_state","free_parking_slots"
"52.52303","13.33183","B-GO2213","03/09/2015 05:18:14","2015-2-9T5:18:14Z","45","UNACCEPTABLE","UNACCEPTABLE","0"
"52.52713","13.39735","B-GO2213","03/09/2015 18:10:39","2015-2-9T18:10:39Z","42","GOOD","GOOD","0"
"52.53026","13.34885","B-GO2213","03/09/2015 20:11:06","2015-2-9T20:11:6Z","42","GOOD","GOOD","0"
"52.53189","13.34132","B-GO2213","03/09/2015 23:58:02","2015-2-9T23:58:2Z","39","GOOD","GOOD","0"
"52.53496","13.42201","B-GO2213","03/09/2015 18:57:22","2015-2-9T18:57:22Z","42","GOOD","GOOD","0"
"52.55066","13.35969","B-GO2213","03/09/2015 22:19:42","2015-2-9T22:19:42Z","39","GOOD","GOOD","0"
