"latitude","longitude","car_plate","date","cartodb_date","fuel","interior_state","exterior_state","free_parking_slots"
"52.43388","13.26199","B-GO3014","03/09/2015 00:00:16","2015-2-9T0:0:16Z","93","GOOD","UNACCEPTABLE","0"
"52.55913","13.33034","B-GO3014","03/09/2015 22:06:18","2015-2-9T22:6:18Z","81","GOOD","GOOD","0"
