"latitude","longitude","car_plate","date","cartodb_date","fuel","interior_state","exterior_state","free_parking_slots"
"52.44891","13.29624","B-GO3282","03/09/2015 23:28:04","2015-2-9T23:28:4Z","96","GOOD","GOOD","0"
"52.48898","13.43574","B-GO3282","03/09/2015 19:47:26","2015-2-9T19:47:26Z","100","GOOD","GOOD","0"
"52.49626","13.38442","B-GO3282","03/09/2015 20:36:52","2015-2-9T20:36:52Z","100","UNACCEPTABLE","GOOD","0"
"52.52228","13.40445","B-GO3282","03/09/2015 10:12:37","2015-2-9T10:12:37Z","100","GOOD","GOOD","0"
"52.5234","13.4096","B-GO3282","03/09/2015 17:09:15","2015-2-9T17:9:15Z","100","UNACCEPTABLE","GOOD","0"
"52.53709","13.28557","B-GO3282","03/09/2015 08:15:26","2015-2-9T8:15:26Z","100","UNACCEPTABLE","UNACCEPTABLE","0"
"52.54243","13.37517","B-GO3282","03/09/2015 00:11:38","2015-2-9T0:11:38Z","100","GOOD","GOOD","0"
