"latitude","longitude","car_plate","date","cartodb_date","fuel","interior_state","exterior_state","free_parking_slots"
"52.47568","13.33777","B-GO2094","03/09/2015 12:19:21","2015-2-9T12:19:21Z","18","UNACCEPTABLE","UNACCEPTABLE","0"
"52.47748","13.34812","B-GO2094","03/09/2015 23:58:01","2015-2-9T23:58:1Z","100","GOOD","GOOD","0"
"52.47988","13.32777","B-GO2094","03/09/2015 09:01:36","2015-2-9T9:1:36Z","30","GOOD","UNACCEPTABLE","0"
"52.48172","13.34231","B-GO2094","03/09/2015 01:26:58","2015-2-9T1:26:58Z","33","GOOD","GOOD","0"
