"latitude","longitude","car_plate","date","cartodb_date","fuel","interior_state","exterior_state","free_parking_slots"
"52.45728","13.52811","B-GO2864","03/09/2015 21:41:55","2015-2-9T21:41:55Z","60","GOOD","GOOD","0"
"52.50749","13.38683","B-GO2864","03/09/2015 12:28:38","2015-2-9T12:28:38Z","63","UNACCEPTABLE","GOOD","0"
"52.51656","13.4652","B-GO2864","03/09/2015 15:52:24","2015-2-9T15:52:24Z","63","GOOD","GOOD","0"
"52.51809","13.45946","B-GO2864","03/09/2015 02:15:27","2015-2-9T2:15:27Z","75","GOOD","GOOD","0"
"52.52453","13.41005","B-GO2864","03/09/2015 11:51:35","2015-2-9T11:51:35Z","66","GOOD","UNACCEPTABLE","0"
"52.52709","13.40824","B-GO2864","03/09/2015 09:59:14","2015-2-9T9:59:14Z","69","GOOD","GOOD","0"
"52.56928","13.41164","B-GO2864","03/09/2015 08:10:17","2015-2-9T8:10:17Z","72","GOOD","UNACCEPTABLE","0"
