"latitude","longitude","car_plate","date","cartodb_date","fuel","interior_state","exterior_state","free_parking_slots"
"52.50583","13.3065","B-GO2116","03/09/2015 16:26:25","2015-2-9T16:26:25Z","54","GOOD","GOOD","0"
"52.51847","13.31575","B-GO2116","03/09/2015 16:43:31","2015-2-9T16:43:31Z","54","GOOD","GOOD","0"
"52.51998","13.32846","B-GO2116","03/09/2015 00:41:36","2015-2-9T0:41:36Z","57","GOOD","GOOD","0"
"52.54101","13.26602","B-GO2116","03/09/2015 18:23:01","2015-2-9T18:23:1Z","51","GOOD","GOOD","0"
