"latitude","longitude","car_plate","date","cartodb_date","fuel","interior_state","exterior_state","free_parking_slots"
"52.563","13.3296","B-GO3072","03/09/2015 16:00:38","2015-2-9T16:0:38Z","39","GOOD","GOOD","0"
"52.57089","13.33576","B-GO3072","03/09/2015 19:07:38","2015-2-9T19:7:38Z","39","GOOD","GOOD","0"
"52.57444","13.31434","B-GO3072","03/09/2015 02:39:14","2015-2-9T2:39:14Z","42","GOOD","GOOD","0"
"52.57529","13.337","B-GO3072","03/09/2015 10:48:40","2015-2-9T10:48:40Z","39","GOOD","GOOD","0"
