"latitude","longitude","car_plate","date","cartodb_date","fuel","interior_state","exterior_state","free_parking_slots"
"52.45654","13.52898","B-GO2210","03/09/2015 22:26:55","2015-2-9T22:26:55Z","48","GOOD","GOOD","0"
"52.4782","13.37436","B-GO2210","03/09/2015 11:25:46","2015-2-9T11:25:46Z","54","GOOD","GOOD","0"
"52.49186","13.42099","B-GO2210","03/09/2015 10:08:30","2015-2-9T10:8:30Z","57","GOOD","GOOD","0"
"52.49208","13.42103","B-GO2210","03/09/2015 18:58:24","2015-2-9T18:58:24Z","51","GOOD","GOOD","0"
"52.49683","13.42051","B-GO2210","03/09/2015 12:05:58","2015-2-9T12:5:58Z","54","GOOD","GOOD","0"
"52.4983","13.45033","B-GO2210","03/09/2015 06:50:02","2015-2-9T6:50:2Z","57","GOOD","GOOD","0"
"52.499","13.42354","B-GO2210","03/09/2015 12:50:14","2015-2-9T12:50:14Z","51","GOOD","GOOD","0"
"52.50574","13.42696","B-GO2210","03/09/2015 15:52:24","2015-2-9T15:52:24Z","51","GOOD","GOOD","0"
"52.52907","13.43073","B-GO2210","03/09/2015 19:57:44","2015-2-9T19:57:44Z","48","GOOD","GOOD","0"
