"latitude","longitude","car_plate","date","cartodb_date","fuel","interior_state","exterior_state","free_parking_slots"
"52.42407","13.37847","B-GO3305","03/09/2015 16:26:24","2015-2-9T16:26:24Z","51","GOOD","GOOD","0"
"52.47943","13.34149","B-GO3305","03/09/2015 00:01:17","2015-2-9T0:1:17Z","54","GOOD","GOOD","0"
