"latitude","longitude","car_plate","date","cartodb_date","fuel","interior_state","exterior_state","free_parking_slots"
"52.43164","13.24693","B-GO2542","03/09/2015 23:58:01","2015-2-9T23:58:1Z","24","GOOD","GOOD","0"
"52.4317","13.24685","B-GO2542","03/09/2015 00:01:17","2015-2-9T0:1:17Z","24","GOOD","GOOD","0"
