"latitude","longitude","car_plate","date","cartodb_date","fuel","interior_state","exterior_state","free_parking_slots"
"52.53287","13.34765","B-GO2259","03/09/2015 23:58:01","2015-2-9T23:58:1Z","100","GOOD","GOOD","0"
"52.53438","13.34714","B-GO2259","03/09/2015 20:29:39","2015-2-9T20:29:39Z","100","GOOD","GOOD","0"
"52.53548","13.27049","B-GO2259","03/09/2015 06:40:46","2015-2-9T6:40:46Z","100","GOOD","GOOD","0"
"52.5415","13.27345","B-GO2259","03/09/2015 13:43:44","2015-2-9T13:43:44Z","100","GOOD","GOOD","0"
