"latitude","longitude","car_plate","date","cartodb_date","fuel","interior_state","exterior_state","free_parking_slots"
"52.51119","13.46699","B-GO2311","03/09/2015 18:25:06","2015-2-9T18:25:6Z","45","GOOD","GOOD","0"
"52.52899","13.39759","B-GO2311","03/09/2015 16:52:47","2015-2-9T16:52:47Z","45","GOOD","GOOD","0"
"52.52991","13.40338","B-GO2311","03/09/2015 19:28:15","2015-2-9T19:28:15Z","45","GOOD","GOOD","0"
"52.53066","13.41853","B-GO2311","03/09/2015 15:59:37","2015-2-9T15:59:37Z","48","GOOD","GOOD","0"
"52.53098","13.47103","B-GO2311","03/09/2015 03:28:48","2015-2-9T3:28:48Z","51","GOOD","GOOD","0"
"52.5676","13.36132","B-GO2311","03/09/2015 19:50:31","2015-2-9T19:50:31Z","45","GOOD","GOOD","0"
