"latitude","longitude","car_plate","date","cartodb_date","fuel","interior_state","exterior_state","free_parking_slots"
"52.4872","13.39677","B-GO2551","03/09/2015 18:17:52","2015-2-9T18:17:52Z","81","GOOD","GOOD","0"
"52.50288","13.299","B-GO2551","03/09/2015 16:22:18","2015-2-9T16:22:18Z","87","GOOD","GOOD","0"
"52.50342","13.3636","B-GO2551","03/09/2015 13:50:58","2015-2-9T13:50:58Z","90","GOOD","GOOD","0"
"52.5045","13.36689","B-GO2551","03/09/2015 13:58:09","2015-2-9T13:58:9Z","90","GOOD","GOOD","0"
"52.50654","13.39784","B-GO2551","03/09/2015 19:10:43","2015-2-9T19:10:43Z","78","GOOD","GOOD","0"
"52.51554","13.30446","B-GO2551","03/09/2015 14:41:23","2015-2-9T14:41:23Z","90","GOOD","GOOD","0"
"52.51838","13.46365","B-GO2551","03/09/2015 00:33:20","2015-2-9T0:33:20Z","100","GOOD","GOOD","0"
"52.51874","13.28031","B-GO2551","03/09/2015 15:28:44","2015-2-9T15:28:44Z","87","UNACCEPTABLE","GOOD","0"
"52.53693","13.26428","B-GO2551","03/09/2015 22:45:36","2015-2-9T22:45:36Z","75","GOOD","GOOD","0"
"52.53774","13.25313","B-GO2551","03/09/2015 12:22:27","2015-2-9T12:22:27Z","96","GOOD","GOOD","0"
"52.53957","13.2357","B-GO2551","03/09/2015 20:33:46","2015-2-9T20:33:46Z","75","GOOD","GOOD","0"
"52.55001","13.2005","B-GO2551","03/09/2015 23:18:46","2015-2-9T23:18:46Z","72","GOOD","GOOD","0"
