"latitude","longitude","car_plate","date","cartodb_date","fuel","interior_state","exterior_state","free_parking_slots"
"52.52612","13.35806","B-GO2242","03/09/2015 15:36:58","2015-2-9T15:36:58Z","21","GOOD","GOOD","0"
"52.53071","13.34745","B-GO2242","03/09/2015 05:59:31","2015-2-9T5:59:31Z","21","GOOD","GOOD","0"
"52.57557","13.33108","B-GO2242","03/09/2015 23:56:59","2015-2-9T23:56:59Z","18","UNACCEPTABLE","UNACCEPTABLE","0"
