"latitude","longitude","car_plate","date","cartodb_date","fuel","interior_state","exterior_state","free_parking_slots"
"52.46345","13.37712","B-GO2370","03/09/2015 18:27:09","2015-2-9T18:27:9Z","100","GOOD","GOOD","0"
"52.46373","13.37719","B-GO2370","03/09/2015 20:03:55","2015-2-9T20:3:55Z","100","GOOD","UNACCEPTABLE","0"
"52.49119","13.41017","B-GO2370","03/09/2015 13:30:21","2015-2-9T13:30:21Z","100","GOOD","UNACCEPTABLE","0"
"52.49913","13.44114","B-GO2370","03/09/2015 11:20:37","2015-2-9T11:20:37Z","21","UNACCEPTABLE","UNACCEPTABLE","0"
"52.53901","13.39776","B-GO2370","03/09/2015 21:09:52","2015-2-9T21:9:52Z","96","GOOD","GOOD","0"
