"latitude","longitude","car_plate","date","cartodb_date","fuel","interior_state","exterior_state","free_parking_slots"
"52.4273","13.48125","B-GO2188","03/09/2015 18:48:05","2015-2-9T18:48:5Z","63","GOOD","GOOD","0"
"52.42788","13.48025","B-GO2188","03/09/2015 23:02:15","2015-2-9T23:2:15Z","63","GOOD","GOOD","0"
"52.45662","13.44312","B-GO2188","03/09/2015 16:17:09","2015-2-9T16:17:9Z","63","GOOD","GOOD","0"
"52.4604","13.3895","B-GO2188","03/09/2015 09:53:02","2015-2-9T9:53:2Z","69","UNACCEPTABLE","UNACCEPTABLE","0"
"52.4647","13.38384","B-GO2188","03/09/2015 11:59:47","2015-2-9T11:59:47Z","66","GOOD","UNACCEPTABLE","0"
"52.46574","13.38782","B-GO2188","03/09/2015 08:20:32","2015-2-9T8:20:32Z","69","GOOD","GOOD","0"
"52.46709","13.37658","B-GO2188","03/09/2015 10:33:13","2015-2-9T10:33:13Z","66","GOOD","UNACCEPTABLE","0"
"52.46823","13.43603","B-GO2188","03/09/2015 14:33:09","2015-2-9T14:33:9Z","66","GOOD","GOOD","0"
"52.4694","13.4356","B-GO2188","03/09/2015 17:22:16","2015-2-9T17:22:16Z","63","GOOD","GOOD","0"
"52.51095","13.3076","B-GO2188","03/09/2015 03:20:32","2015-2-9T3:20:32Z","72","GOOD","UNACCEPTABLE","0"
