"latitude","longitude","car_plate","date","cartodb_date","fuel","interior_state","exterior_state","free_parking_slots"
"52.43435","13.26212","B-GO2696","03/09/2015 11:43:19","2015-2-9T11:43:19Z","18","GOOD","GOOD","0"
"52.43943","13.35054","B-GO2696","03/09/2015 00:01:17","2015-2-9T0:1:17Z","24","GOOD","GOOD","0"
"52.48051","13.37517","B-GO2696","03/09/2015 07:58:57","2015-2-9T7:58:57Z","21","UNACCEPTABLE","UNACCEPTABLE","0"
"52.48675","13.26376","B-GO2696","03/09/2015 20:45:08","2015-2-9T20:45:8Z","15","GOOD","UNACCEPTABLE","0"
"52.49435","13.29776","B-GO2696","03/09/2015 22:41:26","2015-2-9T22:41:26Z","15","GOOD","GOOD","0"
"52.49698","13.43326","B-GO2696","03/09/2015 04:30:42","2015-2-9T4:30:42Z","21","UNACCEPTABLE","UNACCEPTABLE","0"
"52.50272","13.30782","B-GO2696","03/09/2015 21:46:41","2015-2-9T21:46:41Z","15","GOOD","GOOD","0"
