"latitude","longitude","car_plate","date","cartodb_date","fuel","interior_state","exterior_state","free_parking_slots"
"52.46398","13.48654","B-GO3217","03/09/2015 17:35:40","2015-2-9T17:35:40Z","87","GOOD","GOOD","0"
"52.46751","13.49272","B-GO3217","03/09/2015 20:49:14","2015-2-9T20:49:14Z","75","GOOD","GOOD","0"
"52.46847","13.28766","B-GO3217","03/09/2015 00:37:27","2015-2-9T0:37:27Z","100","GOOD","UNACCEPTABLE","0"
"52.47869","13.4353","B-GO3217","03/09/2015 23:58:01","2015-2-9T23:58:1Z","72","GOOD","GOOD","0"
"52.48871","13.40608","B-GO3217","03/09/2015 17:04:06","2015-2-9T17:4:6Z","93","GOOD","GOOD","0"
"52.49174","13.43293","B-GO3217","03/09/2015 19:25:09","2015-2-9T19:25:9Z","78","GOOD","GOOD","0"
