"latitude","longitude","car_plate","date","cartodb_date","fuel","interior_state","exterior_state","free_parking_slots"
"52.54115","13.32582","B-GO2988","03/09/2015 00:00:15","2015-2-9T0:0:15Z","75","GOOD","GOOD","0"
"52.55034","13.29771","B-GO2988","03/09/2015 15:06:06","2015-2-9T15:6:6Z","72","GOOD","GOOD","0"
