"latitude","longitude","car_plate","date","cartodb_date","fuel","interior_state","exterior_state","free_parking_slots"
"52.50589","13.4961","B-GO3093","03/09/2015 20:19:20","2015-2-9T20:19:20Z","18","GOOD","GOOD","0"
"52.54023","13.42775","B-GO3093","03/09/2015 00:01:17","2015-2-9T0:1:17Z","18","GOOD","UNACCEPTABLE","0"
"52.54101","13.49963","B-GO3093","03/09/2015 04:09:00","2015-2-9T4:9:0Z","18","GOOD","GOOD","0"
"52.54104","13.49961","B-GO3093","03/09/2015 16:22:18","2015-2-9T16:22:18Z","18","GOOD","GOOD","0"
