"latitude","longitude","car_plate","date","cartodb_date","fuel","interior_state","exterior_state","free_parking_slots"
"52.49534","13.32953","B-GO2820","03/09/2015 15:48:18","2015-2-9T15:48:18Z","18","GOOD","GOOD","0"
"52.49904","13.31573","B-GO2820","03/09/2015 18:21:59","2015-2-9T18:21:59Z","15","GOOD","GOOD","0"
"52.51142","13.38975","B-GO2820","03/09/2015 12:50:14","2015-2-9T12:50:14Z","18","UNACCEPTABLE","GOOD","0"
"52.51324","13.29068","B-GO2820","03/09/2015 11:01:02","2015-2-9T11:1:2Z","21","GOOD","GOOD","0"
"52.51458","13.28782","B-GO2820","03/09/2015 09:02:38","2015-2-9T9:2:38Z","24","GOOD","GOOD","0"
"52.5147","13.33128","B-GO2820","03/09/2015 16:13:02","2015-2-9T16:13:2Z","15","GOOD","GOOD","0"
"52.51499","13.27237","B-GO2820","03/09/2015 22:43:32","2015-2-9T22:43:32Z","12","GOOD","GOOD","0"
