"latitude","longitude","car_plate","date","cartodb_date","fuel","interior_state","exterior_state","free_parking_slots"
"52.45446","13.43342","B-GO3313","03/09/2015 00:00:16","2015-2-9T0:0:16Z","100","UNACCEPTABLE","UNACCEPTABLE","0"
"52.50025","13.45501","B-GO3313","03/09/2015 10:56:55","2015-2-9T10:56:55Z","100","UNACCEPTABLE","UNACCEPTABLE","0"
"52.5129","13.48971","B-GO3313","03/09/2015 18:42:57","2015-2-9T18:42:57Z","100","GOOD","GOOD","0"
"52.51447","13.44409","B-GO3313","03/09/2015 23:28:04","2015-2-9T23:28:4Z","100","GOOD","GOOD","0"
