"latitude","longitude","car_plate","date","cartodb_date","fuel","interior_state","exterior_state","free_parking_slots"
"52.44457","13.40603","B-GO2605","03/09/2015 23:58:02","2015-2-9T23:58:2Z","54","GOOD","GOOD","0"
"52.46352","13.37736","B-GO2605","03/09/2015 21:00:36","2015-2-9T21:0:36Z","57","GOOD","GOOD","0"
"52.4801","13.34961","B-GO2605","03/09/2015 02:49:34","2015-2-9T2:49:34Z","57","GOOD","GOOD","0"
