"latitude","longitude","car_plate","date","cartodb_date","fuel","interior_state","exterior_state","free_parking_slots"
"52.41509","13.42977","B-GO2949","03/09/2015 06:19:07","2015-2-9T6:19:7Z","30","GOOD","UNACCEPTABLE","0"
"52.45741","13.52808","B-GO2949","03/09/2015 02:48:32","2015-2-9T2:48:32Z","36","GOOD","GOOD","0"
"52.46146","13.31691","B-GO2949","03/09/2015 11:42:17","2015-2-9T11:42:17Z","27","GOOD","GOOD","0"
"52.46167","13.31653","B-GO2949","03/09/2015 15:57:32","2015-2-9T15:57:32Z","27","GOOD","GOOD","0"
"52.46207","13.43507","B-GO2949","03/09/2015 10:51:46","2015-2-9T10:51:46Z","30","UNACCEPTABLE","UNACCEPTABLE","0"
"52.47843","13.44218","B-GO2949","03/09/2015 10:02:19","2015-2-9T10:2:19Z","30","GOOD","GOOD","0"
