"latitude","longitude","car_plate","date","cartodb_date","fuel","interior_state","exterior_state","free_parking_slots"
"52.50081","13.29861","B-GO2083","03/09/2015 16:57:55","2015-2-9T16:57:55Z","51","GOOD","GOOD","0"
"52.50405","13.32552","B-GO2083","03/09/2015 14:34:11","2015-2-9T14:34:11Z","51","GOOD","GOOD","0"
"52.51488","13.43403","B-GO2083","03/09/2015 02:39:14","2015-2-9T2:39:14Z","54","GOOD","GOOD","0"
"52.57214","13.36589","B-GO2083","03/09/2015 18:50:08","2015-2-9T18:50:8Z","48","GOOD","GOOD","0"
