"latitude","longitude","car_plate","date","cartodb_date","fuel","interior_state","exterior_state","free_parking_slots"
"52.49756","13.29606","B-GO2669","03/09/2015 07:37:22","2015-2-9T7:37:22Z","100","GOOD","GOOD","0"
"52.50879","13.25999","B-GO2669","03/09/2015 23:49:45","2015-2-9T23:49:45Z","100","GOOD","GOOD","0"
"52.52061","13.32774","B-GO2669","03/09/2015 18:37:49","2015-2-9T18:37:49Z","100","GOOD","GOOD","0"
"52.53103","13.3672","B-GO2669","03/09/2015 15:03:02","2015-2-9T15:3:2Z","100","GOOD","GOOD","0"
"52.56984","13.36887","B-GO2669","03/09/2015 05:17:12","2015-2-9T5:17:12Z","100","GOOD","GOOD","0"
