"latitude","longitude","car_plate","date","cartodb_date","fuel","interior_state","exterior_state","free_parking_slots"
"52.45916","13.30582","B-GO2550","03/09/2015 15:54:27","2015-2-9T15:54:27Z","60","UNACCEPTABLE","UNACCEPTABLE","0"
"52.47154","13.32638","B-GO2550","03/09/2015 05:03:45","2015-2-9T5:3:45Z","66","GOOD","GOOD","0"
"52.47628","13.2952","B-GO2550","03/09/2015 17:43:55","2015-2-9T17:43:55Z","57","GOOD","GOOD","0"
"52.51112","13.2694","B-GO2550","03/09/2015 23:31:09","2015-2-9T23:31:9Z","57","GOOD","GOOD","0"
"52.53342","13.19641","B-GO2550","03/09/2015 06:52:06","2015-2-9T6:52:6Z","63","GOOD","GOOD","0"
