"latitude","longitude","car_plate","date","cartodb_date","fuel","interior_state","exterior_state","free_parking_slots"
"52.43477","13.30208","B-GO2772","03/09/2015 22:28:59","2015-2-9T22:28:59Z","27","GOOD","UNACCEPTABLE","0"
"52.49336","13.29822","B-GO2772","03/09/2015 18:17:53","2015-2-9T18:17:53Z","33","GOOD","UNACCEPTABLE","0"
"52.49933","13.33824","B-GO2772","03/09/2015 09:46:53","2015-2-9T9:46:53Z","39","GOOD","GOOD","0"
"52.49962","13.32918","B-GO2772","03/09/2015 17:52:09","2015-2-9T17:52:9Z","33","UNACCEPTABLE","UNACCEPTABLE","0"
"52.50337","13.30179","B-GO2772","03/09/2015 11:56:43","2015-2-9T11:56:43Z","36","GOOD","UNACCEPTABLE","0"
"52.50683","13.31773","B-GO2772","03/09/2015 19:21:03","2015-2-9T19:21:3Z","33","UNACCEPTABLE","UNACCEPTABLE","0"
"52.50854","13.30207","B-GO2772","03/09/2015 14:16:43","2015-2-9T14:16:43Z","36","GOOD","GOOD","0"
"52.51555","13.36679","B-GO2772","03/09/2015 20:59:34","2015-2-9T20:59:34Z","30","UNACCEPTABLE","UNACCEPTABLE","0"
"52.55787","13.33218","B-GO2772","03/09/2015 08:57:30","2015-2-9T8:57:30Z","42","GOOD","UNACCEPTABLE","0"
