"latitude","longitude","car_plate","date","cartodb_date","fuel","interior_state","exterior_state","free_parking_slots"
"52.48634","13.38211","B-GO2234","03/09/2015 05:01:41","2015-2-9T5:1:41Z","54","GOOD","GOOD","0"
"52.48636","13.38208","B-GO2234","03/09/2015 00:15:46","2015-2-9T0:15:46Z","57","GOOD","GOOD","0"
"52.51721","13.41208","B-GO2234","03/09/2015 11:46:23","2015-2-9T11:46:23Z","54","GOOD","GOOD","0"
