"latitude","longitude","car_plate","date","cartodb_date","fuel","interior_state","exterior_state","free_parking_slots"
"52.42023","13.44512","B-GO2276","03/09/2015 23:58:01","2015-2-9T23:58:1Z","100","GOOD","GOOD","0"
"52.44552","13.45407","B-GO2276","03/09/2015 19:35:27","2015-2-9T19:35:27Z","24","UNACCEPTABLE","UNACCEPTABLE","0"
"52.44938","13.37017","B-GO2276","03/09/2015 06:35:36","2015-2-9T6:35:36Z","24","GOOD","UNACCEPTABLE","0"
"52.46581","13.43285","B-GO2276","03/09/2015 20:54:24","2015-2-9T20:54:24Z","21","GOOD","GOOD","0"
