"latitude","longitude","car_plate","date","cartodb_date","fuel","interior_state","exterior_state","free_parking_slots"
"52.47273","13.33542","B-GO2080","03/09/2015 19:14:49","2015-2-9T19:14:49Z","72","GOOD","GOOD","0"
"52.47922","13.34321","B-GO2080","03/09/2015 19:51:32","2015-2-9T19:51:32Z","72","GOOD","GOOD","0"
"52.48793","13.34474","B-GO2080","03/09/2015 14:24:56","2015-2-9T14:24:56Z","75","GOOD","GOOD","0"
"52.49082","13.34058","B-GO2080","03/09/2015 22:21:45","2015-2-9T22:21:45Z","72","GOOD","GOOD","0"
"52.50569","13.39377","B-GO2080","03/09/2015 11:24:43","2015-2-9T11:24:43Z","75","GOOD","GOOD","0"
"52.53385","13.40564","B-GO2080","03/09/2015 10:43:30","2015-2-9T10:43:30Z","78","GOOD","GOOD","0"
"52.5339","13.40563","B-GO2080","03/09/2015 10:12:36","2015-2-9T10:12:36Z","78","GOOD","GOOD","0"
"52.56737","13.35974","B-GO2080","03/09/2015 01:39:19","2015-2-9T1:39:19Z","81","UNACCEPTABLE","GOOD","0"
