"latitude","longitude","car_plate","date","cartodb_date","fuel","interior_state","exterior_state","free_parking_slots"
"52.46035","13.44779","B-GO2024","03/09/2015 00:01:17","2015-2-9T0:1:17Z","42","GOOD","GOOD","0"
"52.4933","13.42333","B-GO2024","03/09/2015 10:39:24","2015-2-9T10:39:24Z","42","GOOD","GOOD","0"
"52.49334","13.50801","B-GO2024","03/09/2015 23:22:53","2015-2-9T23:22:53Z","36","GOOD","UNACCEPTABLE","0"
"52.50262","13.44166","B-GO2024","03/09/2015 12:21:26","2015-2-9T12:21:26Z","39","UNACCEPTABLE","UNACCEPTABLE","0"
"52.51254","13.41538","B-GO2024","03/09/2015 14:51:41","2015-2-9T14:51:41Z","39","GOOD","GOOD","0"
"52.51894","13.43795","B-GO2024","03/09/2015 17:15:25","2015-2-9T17:15:25Z","39","GOOD","GOOD","0"
"52.52007","13.45027","B-GO2024","03/09/2015 19:44:12","2015-2-9T19:44:12Z","39","GOOD","GOOD","0"
