"latitude","longitude","car_plate","date","cartodb_date","fuel","interior_state","exterior_state","free_parking_slots"
"52.48004","13.44576","B-GO2922","03/09/2015 03:47:20","2015-2-9T3:47:20Z","63","GOOD","GOOD","0"
"52.4933","13.44488","B-GO2922","03/09/2015 09:02:37","2015-2-9T9:2:37Z","60","GOOD","GOOD","0"
"52.49356","13.44525","B-GO2922","03/09/2015 17:50:06","2015-2-9T17:50:6Z","57","GOOD","GOOD","0"
"52.49356","13.44572","B-GO2922","03/09/2015 11:35:02","2015-2-9T11:35:2Z","60","GOOD","GOOD","0"
