"latitude","longitude","car_plate","date","cartodb_date","fuel","interior_state","exterior_state","free_parking_slots"
"52.43555","13.34074","B-GO2801","03/09/2015 23:00:12","2015-2-9T23:0:12Z","36","GOOD","GOOD","0"
"52.44443","13.45531","B-GO2801","03/09/2015 00:09:34","2015-2-9T0:9:34Z","39","UNACCEPTABLE","GOOD","0"
"52.44825","13.38189","B-GO2801","03/09/2015 17:43:55","2015-2-9T17:43:55Z","36","GOOD","GOOD","0"
"52.45256","13.43439","B-GO2801","03/09/2015 10:57:57","2015-2-9T10:57:57Z","39","GOOD","GOOD","0"
