"latitude","longitude","car_plate","date","cartodb_date","fuel","interior_state","exterior_state","free_parking_slots"
"52.5156","13.47284","B-GO2791","03/09/2015 13:51:59","2015-2-9T13:51:59Z","90","GOOD","GOOD","0"
"52.5359","13.51389","B-GO2791","03/09/2015 03:00:56","2015-2-9T3:0:56Z","90","GOOD","GOOD","0"
