"latitude","longitude","car_plate","date","cartodb_date","fuel","interior_state","exterior_state","free_parking_slots"
"52.47436","13.46439","B-GO3431","03/09/2015 04:30:42","2015-2-9T4:30:42Z","18","GOOD","GOOD","0"
"52.4973","13.43265","B-GO3431","03/09/2015 00:56:04","2015-2-9T0:56:4Z","18","GOOD","GOOD","0"
"52.50999","13.47048","B-GO3431","03/09/2015 21:40:52","2015-2-9T21:40:52Z","15","GOOD","GOOD","0"
"52.52009","13.45018","B-GO3431","03/09/2015 20:55:26","2015-2-9T20:55:26Z","15","GOOD","GOOD","0"
"52.53115","13.45724","B-GO3431","03/09/2015 17:23:19","2015-2-9T17:23:19Z","15","GOOD","GOOD","0"
"52.54577","13.3941","B-GO3431","03/09/2015 23:16:42","2015-2-9T23:16:42Z","12","GOOD","GOOD","0"
