"latitude","longitude","car_plate","date","cartodb_date","fuel","interior_state","exterior_state","free_parking_slots"
"52.46945","13.37444","B-GO2248","03/09/2015 21:31:35","2015-2-9T21:31:35Z","45","GOOD","GOOD","0"
"52.48051","13.37581","B-GO2248","03/09/2015 15:58:34","2015-2-9T15:58:34Z","45","GOOD","GOOD","0"
"52.4816","13.37525","B-GO2248","03/09/2015 23:18:46","2015-2-9T23:18:46Z","45","GOOD","GOOD","0"
