"latitude","longitude","car_plate","date","cartodb_date","fuel","interior_state","exterior_state","free_parking_slots"
"52.46449","13.42153","B-GO3244","03/09/2015 02:09:14","2015-2-9T2:9:14Z","57","UNACCEPTABLE","UNACCEPTABLE","0"
"52.49731","13.29202","B-GO3244","03/09/2015 09:03:39","2015-2-9T9:3:39Z","54","GOOD","GOOD","0"
"52.50351","13.32434","B-GO3244","03/09/2015 08:36:57","2015-2-9T8:36:57Z","54","UNACCEPTABLE","UNACCEPTABLE","0"
"52.50747","13.38702","B-GO3244","03/09/2015 14:34:11","2015-2-9T14:34:11Z","51","UNACCEPTABLE","GOOD","0"
"52.50805","13.45403","B-GO3244","03/09/2015 21:25:24","2015-2-9T21:25:24Z","48","GOOD","GOOD","0"
"52.51309","13.45698","B-GO3244","03/09/2015 20:05:57","2015-2-9T20:5:57Z","51","GOOD","GOOD","0"
"52.52362","13.44625","B-GO3244","03/09/2015 16:02:44","2015-2-9T16:2:44Z","51","GOOD","GOOD","0"
"52.52936","13.38789","B-GO3244","03/09/2015 21:43:01","2015-2-9T21:43:1Z","48","GOOD","GOOD","0"
