"latitude","longitude","car_plate","date","cartodb_date","fuel","interior_state","exterior_state","free_parking_slots"
"52.44988","13.33744","B-GO2636","03/09/2015 09:27:17","2015-2-9T9:27:17Z","100","GOOD","GOOD","0"
"52.46585","13.33151","B-GO2636","03/09/2015 17:51:08","2015-2-9T17:51:8Z","100","GOOD","GOOD","0"
"52.47759","13.46264","B-GO2636","03/09/2015 23:58:02","2015-2-9T23:58:2Z","100","GOOD","GOOD","0"
"52.47837","13.44711","B-GO2636","03/09/2015 21:41:55","2015-2-9T21:41:55Z","100","GOOD","GOOD","0"
"52.47901","13.34185","B-GO2636","03/09/2015 11:46:24","2015-2-9T11:46:24Z","100","GOOD","GOOD","0"
"52.47932","13.34183","B-GO2636","03/09/2015 03:11:15","2015-2-9T3:11:15Z","100","GOOD","UNACCEPTABLE","0"
"52.47941","13.34342","B-GO2636","03/09/2015 07:51:46","2015-2-9T7:51:46Z","100","GOOD","GOOD","0"
