"latitude","longitude","car_plate","date","cartodb_date","fuel","interior_state","exterior_state","free_parking_slots"
"52.4351","13.28323","B-GO2389","03/09/2015 17:37:44","2015-2-9T17:37:44Z","39","UNACCEPTABLE","UNACCEPTABLE","0"
"52.43751","13.23302","B-GO2389","03/09/2015 22:14:32","2015-2-9T22:14:32Z","30","GOOD","GOOD","0"
"52.44023","13.28902","B-GO2389","03/09/2015 15:36:59","2015-2-9T15:36:59Z","39","UNACCEPTABLE","UNACCEPTABLE","0"
"52.44029","13.27819","B-GO2389","03/09/2015 05:03:45","2015-2-9T5:3:45Z","45","GOOD","GOOD","0"
"52.47938","13.3203","B-GO2389","03/09/2015 18:31:16","2015-2-9T18:31:16Z","36","UNACCEPTABLE","UNACCEPTABLE","0"
"52.51426","13.38631","B-GO2389","03/09/2015 13:58:09","2015-2-9T13:58:9Z","42","GOOD","GOOD","0"
"52.52231","13.37806","B-GO2389","03/09/2015 08:12:20","2015-2-9T8:12:20Z","42","GOOD","GOOD","0"
"52.53329","13.19715","B-GO2389","03/09/2015 19:57:44","2015-2-9T19:57:44Z","36","GOOD","GOOD","0"
