"latitude","longitude","car_plate","date","cartodb_date","fuel","interior_state","exterior_state","free_parking_slots"
"52.49099","13.42324","B-GO3365","03/09/2015 02:06:09","2015-2-9T2:6:9Z","36","GOOD","GOOD","0"
"52.50516","13.39692","B-GO3365","03/09/2015 00:05:25","2015-2-9T0:5:25Z","36","GOOD","GOOD","0"
"52.5114","13.30366","B-GO3365","03/09/2015 21:09:52","2015-2-9T21:9:52Z","30","UNACCEPTABLE","UNACCEPTABLE","0"
"52.51313","13.38271","B-GO3365","03/09/2015 14:06:24","2015-2-9T14:6:24Z","33","UNACCEPTABLE","UNACCEPTABLE","0"
"52.52385","13.31162","B-GO3365","03/09/2015 23:58:02","2015-2-9T23:58:2Z","30","GOOD","GOOD","0"
"52.54452","13.36618","B-GO3365","03/09/2015 18:11:41","2015-2-9T18:11:41Z","33","UNACCEPTABLE","UNACCEPTABLE","0"
"52.54964","13.38487","B-GO3365","03/09/2015 19:56:42","2015-2-9T19:56:42Z","30","UNACCEPTABLE","UNACCEPTABLE","0"
