"latitude","longitude","car_plate","date","cartodb_date","fuel","interior_state","exterior_state","free_parking_slots"
"52.5228","13.19656","B-GO2977","03/09/2015 18:32:17","2015-2-9T18:32:17Z","100","GOOD","GOOD","0"
"52.52799","13.21612","B-GO2977","03/09/2015 17:28:29","2015-2-9T17:28:29Z","100","UNACCEPTABLE","UNACCEPTABLE","0"
"52.53364","13.3963","B-GO2977","03/09/2015 23:58:01","2015-2-9T23:58:1Z","100","UNACCEPTABLE","UNACCEPTABLE","0"
"52.5414","13.38969","B-GO2977","03/09/2015 20:42:02","2015-2-9T20:42:2Z","100","UNACCEPTABLE","UNACCEPTABLE","0"
"52.54214","13.408","B-GO2977","03/09/2015 21:11:55","2015-2-9T21:11:55Z","100","UNACCEPTABLE","UNACCEPTABLE","0"
"52.54233","13.19754","B-GO2977","03/09/2015 19:34:25","2015-2-9T19:34:25Z","100","GOOD","GOOD","0"
"52.54695","13.20768","B-GO2977","03/09/2015 17:51:07","2015-2-9T17:51:7Z","100","GOOD","GOOD","0"
"52.5516","13.20083","B-GO2977","03/09/2015 05:00:40","2015-2-9T5:0:40Z","100","GOOD","UNACCEPTABLE","0"
