"latitude","longitude","car_plate","date","cartodb_date","fuel","interior_state","exterior_state","free_parking_slots"
"52.45668","13.38118","B-GO2591","03/09/2015 11:46:24","2015-2-9T11:46:24Z","21","GOOD","GOOD","0"
"52.45685","13.38595","B-GO2591","03/09/2015 09:25:13","2015-2-9T9:25:13Z","24","GOOD","GOOD","0"
"52.46234","13.31648","B-GO2591","03/09/2015 18:58:24","2015-2-9T18:58:24Z","15","GOOD","GOOD","0"
"52.46263","13.40261","B-GO2591","03/09/2015 02:07:11","2015-2-9T2:7:11Z","24","GOOD","GOOD","0"
"52.46274","13.31492","B-GO2591","03/09/2015 18:03:28","2015-2-9T18:3:28Z","18","GOOD","UNACCEPTABLE","0"
"52.46463","13.39937","B-GO2591","03/09/2015 09:58:11","2015-2-9T9:58:11Z","21","GOOD","GOOD","0"
"52.46678","13.31078","B-GO2591","03/09/2015 18:32:17","2015-2-9T18:32:17Z","15","GOOD","GOOD","0"
"52.46846","13.34197","B-GO2591","03/09/2015 23:02:16","2015-2-9T23:2:16Z","100","GOOD","GOOD","0"
"52.46942","13.34295","B-GO2591","03/09/2015 20:15:13","2015-2-9T20:15:13Z","100","GOOD","GOOD","0"
"52.49498","13.40565","B-GO2591","03/09/2015 17:12:20","2015-2-9T17:12:20Z","18","GOOD","GOOD","0"
"52.4992","13.31498","B-GO2591","03/09/2015 19:37:30","2015-2-9T19:37:30Z","100","GOOD","GOOD","0"
"52.50707","13.37497","B-GO2591","03/09/2015 13:29:19","2015-2-9T13:29:19Z","21","GOOD","GOOD","0"
