"latitude","longitude","car_plate","date","cartodb_date","fuel","interior_state","exterior_state","free_parking_slots"
"52.52526","13.31963","B-GO2655","03/09/2015 00:00:16","2015-2-9T0:0:16Z","18","GOOD","GOOD","0"
"52.55877","13.35429","B-GO2655","03/09/2015 03:03:00","2015-2-9T3:3:0Z","18","UNACCEPTABLE","UNACCEPTABLE","0"
"52.574","13.3464","B-GO2655","03/09/2015 15:30:47","2015-2-9T15:30:47Z","15","GOOD","GOOD","0"
