"latitude","longitude","car_plate","date","cartodb_date","fuel","interior_state","exterior_state","free_parking_slots"
"52.43233","13.52663","B-GO3292","03/09/2015 05:20:17","2015-2-9T5:20:17Z","27","GOOD","GOOD","0"
"52.45254","13.28258","B-GO3292","03/09/2015 20:20:22","2015-2-9T20:20:22Z","21","GOOD","GOOD","0"
"52.47868","13.32415","B-GO3292","03/09/2015 23:58:02","2015-2-9T23:58:2Z","18","UNACCEPTABLE","GOOD","0"
"52.49193","13.27826","B-GO3292","03/09/2015 22:53:56","2015-2-9T22:53:56Z","21","GOOD","GOOD","0"
"52.49618","13.32794","B-GO3292","03/09/2015 18:29:12","2015-2-9T18:29:12Z","21","GOOD","GOOD","0"
