"latitude","longitude","car_plate","date","cartodb_date","fuel","interior_state","exterior_state","free_parking_slots"
"52.51114","13.38889","B-GO2042","03/09/2015 11:12:21","2015-2-9T11:12:21Z","51","GOOD","GOOD","0"
"52.52529","13.40336","B-GO2042","03/09/2015 10:34:15","2015-2-9T10:34:15Z","51","GOOD","UNACCEPTABLE","0"
"52.52593","13.37028","B-GO2042","03/09/2015 09:21:06","2015-2-9T9:21:6Z","54","GOOD","GOOD","0"
"52.53312","13.41097","B-GO2042","03/09/2015 01:22:51","2015-2-9T1:22:51Z","54","GOOD","GOOD","0"
"52.54717","13.42386","B-GO2042","03/09/2015 16:46:36","2015-2-9T16:46:36Z","45","GOOD","GOOD","0"
"52.54744","13.2096","B-GO2042","03/09/2015 23:58:02","2015-2-9T23:58:2Z","39","GOOD","GOOD","0"
"52.5516","13.41704","B-GO2042","03/09/2015 14:31:06","2015-2-9T14:31:6Z","48","GOOD","GOOD","0"
"52.57096","13.37331","B-GO2042","03/09/2015 15:12:17","2015-2-9T15:12:17Z","48","GOOD","GOOD","0"
