"latitude","longitude","car_plate","date","cartodb_date","fuel","interior_state","exterior_state","free_parking_slots"
"52.45349","13.27967","B-GO2575","03/09/2015 00:00:16","2015-2-9T0:0:16Z","60","GOOD","GOOD","0"
"52.49311","13.31476","B-GO2575","03/09/2015 22:02:10","2015-2-9T22:2:10Z","60","GOOD","GOOD","0"
