"latitude","longitude","car_plate","date","cartodb_date","fuel","interior_state","exterior_state","free_parking_slots"
"52.42764","13.40683","B-GO2293","03/09/2015 04:35:52","2015-2-9T4:35:52Z","24","GOOD","GOOD","0"
"52.46997","13.46156","B-GO2293","03/09/2015 14:02:16","2015-2-9T14:2:16Z","24","GOOD","GOOD","0"
"52.48627","13.42991","B-GO2293","03/09/2015 19:23:07","2015-2-9T19:23:7Z","21","UNACCEPTABLE","UNACCEPTABLE","0"
"52.48732","13.52374","B-GO2293","03/09/2015 23:58:02","2015-2-9T23:58:2Z","18","GOOD","GOOD","0"
"52.4981","13.42989","B-GO2293","03/09/2015 21:22:20","2015-2-9T21:22:20Z","21","UNACCEPTABLE","UNACCEPTABLE","0"
"52.50023","13.46633","B-GO2293","03/09/2015 21:58:02","2015-2-9T21:58:2Z","21","UNACCEPTABLE","UNACCEPTABLE","0"
