"latitude","longitude","car_plate","date","cartodb_date","fuel","interior_state","exterior_state","free_parking_slots"
"52.44981","13.30783","B-GO2407","03/09/2015 00:01:18","2015-2-9T0:1:18Z","48","GOOD","GOOD","0"
"52.48163","13.36543","B-GO2407","03/09/2015 08:41:04","2015-2-9T8:41:4Z","48","GOOD","GOOD","0"
"52.52259","13.27951","B-GO2407","03/09/2015 14:48:37","2015-2-9T14:48:37Z","42","GOOD","UNACCEPTABLE","0"
"52.52853","13.27304","B-GO2407","03/09/2015 23:58:02","2015-2-9T23:58:2Z","42","GOOD","GOOD","0"
"52.53727","13.25695","B-GO2407","03/09/2015 13:47:51","2015-2-9T13:47:51Z","45","GOOD","GOOD","0"
