"latitude","longitude","car_plate","date","cartodb_date","fuel","interior_state","exterior_state","free_parking_slots"
"52.45107","13.44806","B-GO9006","03/09/2015 18:21:59","2015-2-9T18:21:59Z","84","GOOD","GOOD","0"
"52.50701","13.37513","B-GO9006","03/09/2015 15:05:05","2015-2-9T15:5:5Z","90","GOOD","GOOD","0"
"52.54056","13.3557","B-GO9006","03/09/2015 05:28:34","2015-2-9T5:28:34Z","90","GOOD","GOOD","0"
"52.54276","13.39272","B-GO9006","03/09/2015 20:17:17","2015-2-9T20:17:17Z","72","GOOD","GOOD","0"
