"latitude","longitude","car_plate","date","cartodb_date","fuel","interior_state","exterior_state","free_parking_slots"
"52.49684","13.28811","B-GO3028","03/09/2015 23:58:02","2015-2-9T23:58:2Z","100","GOOD","GOOD","0"
"52.49918","13.42139","B-GO3028","03/09/2015 21:40:52","2015-2-9T21:40:52Z","100","GOOD","GOOD","0"
"52.53594","13.50892","B-GO3028","03/09/2015 10:36:19","2015-2-9T10:36:19Z","100","UNACCEPTABLE","UNACCEPTABLE","0"
