"latitude","longitude","car_plate","date","cartodb_date","fuel","interior_state","exterior_state","free_parking_slots"
"52.44645","13.37824","B-GO2138","03/09/2015 00:00:15","2015-2-9T0:0:15Z","45","GOOD","GOOD","0"
"52.45518","13.32282","B-GO2138","03/09/2015 05:49:12","2015-2-9T5:49:12Z","42","UNACCEPTABLE","UNACCEPTABLE","0"
"52.45925","13.30582","B-GO2138","03/09/2015 10:11:34","2015-2-9T10:11:34Z","42","GOOD","UNACCEPTABLE","0"
