"latitude","longitude","car_plate","date","cartodb_date","fuel","interior_state","exterior_state","free_parking_slots"
"52.46605","13.31277","B-GO2322","03/09/2015 00:01:17","2015-2-9T0:1:17Z","39","UNACCEPTABLE","UNACCEPTABLE","0"
"52.53047","13.38767","B-GO2322","03/09/2015 14:42:24","2015-2-9T14:42:24Z","36","GOOD","GOOD","0"
"52.54519","13.39063","B-GO2322","03/09/2015 23:58:01","2015-2-9T23:58:1Z","36","UNACCEPTABLE","GOOD","0"
"52.55325","13.3867","B-GO2322","03/09/2015 15:18:28","2015-2-9T15:18:28Z","36","GOOD","GOOD","0"
