"latitude","longitude","car_plate","date","cartodb_date","fuel","interior_state","exterior_state","free_parking_slots"
"52.4468","13.38827","B-GO3038","03/09/2015 20:35:49","2015-2-9T20:35:49Z","63","GOOD","GOOD","0"
"52.46382","13.42155","B-GO3038","03/09/2015 20:19:19","2015-2-9T20:19:19Z","63","UNACCEPTABLE","UNACCEPTABLE","0"
"52.48186","13.3512","B-GO3038","03/09/2015 19:30:17","2015-2-9T19:30:17Z","66","GOOD","GOOD","0"
"52.54071","13.31653","B-GO3038","03/09/2015 06:35:35","2015-2-9T6:35:35Z","69","GOOD","GOOD","0"
"52.5431","13.31311","B-GO3038","03/09/2015 14:04:19","2015-2-9T14:4:19Z","69","GOOD","GOOD","0"
"52.55601","13.33109","B-GO3038","03/09/2015 04:20:20","2015-2-9T4:20:20Z","72","UNACCEPTABLE","UNACCEPTABLE","0"
