"latitude","longitude","car_plate","date","cartodb_date","fuel","interior_state","exterior_state","free_parking_slots"
"52.41788","13.3954","B-GO2366","03/09/2015 05:22:21","2015-2-9T5:22:21Z","18","UNACCEPTABLE","GOOD","0"
"52.45665","13.44296","B-GO2366","03/09/2015 23:48:43","2015-2-9T23:48:43Z","15","GOOD","GOOD","0"
"52.47573","13.4235","B-GO2366","03/09/2015 21:18:12","2015-2-9T21:18:12Z","15","GOOD","GOOD","0"
"52.50922","13.26815","B-GO2366","03/09/2015 19:25:10","2015-2-9T19:25:10Z","18","GOOD","GOOD","0"
