"latitude","longitude","car_plate","date","cartodb_date","fuel","interior_state","exterior_state","free_parking_slots"
"52.4484","13.29103","B-GO3328","03/09/2015 16:46:37","2015-2-9T16:46:37Z","27","GOOD","GOOD","0"
"52.50287","13.45155","B-GO3328","03/09/2015 23:30:08","2015-2-9T23:30:8Z","100","UNACCEPTABLE","UNACCEPTABLE","0"
"52.50865","13.32473","B-GO3328","03/09/2015 19:12:47","2015-2-9T19:12:47Z","24","GOOD","GOOD","0"
"52.52164","13.33028","B-GO3328","03/09/2015 03:00:56","2015-2-9T3:0:56Z","30","UNACCEPTABLE","UNACCEPTABLE","0"
"52.52564","13.30524","B-GO3328","03/09/2015 18:47:04","2015-2-9T18:47:4Z","24","GOOD","GOOD","0"
"52.52672","13.30628","B-GO3328","03/09/2015 14:23:56","2015-2-9T14:23:56Z","30","GOOD","GOOD","0"
"52.53453","13.35886","B-GO3328","03/09/2015 01:05:20","2015-2-9T1:5:20Z","30","UNACCEPTABLE","UNACCEPTABLE","0"
"52.54335","13.36173","B-GO3328","03/09/2015 21:53:54","2015-2-9T21:53:54Z","100","UNACCEPTABLE","UNACCEPTABLE","0"
"52.54804","13.37305","B-GO3328","03/09/2015 20:02:53","2015-2-9T20:2:53Z","100","UNACCEPTABLE","UNACCEPTABLE","0"
"52.55062","13.38472","B-GO3328","03/09/2015 20:14:12","2015-2-9T20:14:12Z","100","UNACCEPTABLE","UNACCEPTABLE","0"
