"latitude","longitude","car_plate","date","cartodb_date","fuel","interior_state","exterior_state","free_parking_slots"
"52.44484","13.41097","B-GO2254","03/09/2015 15:52:24","2015-2-9T15:52:24Z","100","GOOD","UNACCEPTABLE","0"
"52.45002","13.38075","B-GO2254","03/09/2015 18:29:13","2015-2-9T18:29:13Z","100","GOOD","GOOD","0"
"52.4518","13.45058","B-GO2254","03/09/2015 13:33:27","2015-2-9T13:33:27Z","100","GOOD","GOOD","0"
"52.4644","13.34812","B-GO2254","03/09/2015 20:10:05","2015-2-9T20:10:5Z","100","UNACCEPTABLE","UNACCEPTABLE","0"
"52.46644","13.44218","B-GO2254","03/09/2015 06:28:25","2015-2-9T6:28:25Z","100","GOOD","GOOD","0"
"52.5284","13.33099","B-GO2254","03/09/2015 23:20:50","2015-2-9T23:20:50Z","100","GOOD","GOOD","0"
"52.5305","13.33122","B-GO2254","03/09/2015 21:11:56","2015-2-9T21:11:56Z","100","GOOD","UNACCEPTABLE","0"
