"latitude","longitude","car_plate","date","cartodb_date","fuel","interior_state","exterior_state","free_parking_slots"
"52.44188","13.35357","B-GO3402","03/09/2015 00:00:16","2015-2-9T0:0:16Z","87","GOOD","GOOD","0"
"52.45696","13.32361","B-GO3402","03/09/2015 06:33:33","2015-2-9T6:33:33Z","87","UNACCEPTABLE","UNACCEPTABLE","0"
"52.45987","13.36354","B-GO3402","03/09/2015 08:09:15","2015-2-9T8:9:15Z","84","GOOD","GOOD","0"
"52.47621","13.37899","B-GO3402","03/09/2015 16:26:25","2015-2-9T16:26:25Z","84","GOOD","GOOD","0"
