INDEX VERSION 1.3+/Users/niklasrappel/Dropbox/UNI_WUE/SOSE_2015/git_repository/CarSharingRouteVisualization/.metadata/.plugins/org.eclipse.wst.jsdt.core/indexes
812574138.index
4081387433.index
2707821918.index
1037475786.index
3714033198.index
1037475786.index
176736950.index
1274951423.index
