"latitude","longitude","car_plate","date","fuel","interior_state","exterior_state","free_parking_slots"
"52.53218","13.34989","B-GO2223","03/09/2015 10:14:39","18","UNACCEPTABLE","UNACCEPTABLE","0"
"52.56648","13.36935","B-GO2223","03/09/2015 23:58:01","18","UNACCEPTABLE","UNACCEPTABLE","0"
"52.56651","13.36912","B-GO2223","03/09/2015 05:26:29","21","UNACCEPTABLE","UNACCEPTABLE","0"
