"latitude","longitude","car_plate","date","fuel","interior_state","exterior_state","free_parking_slots"
"52.49471","13.33438","B-GO2628","03/09/2015 10:54:52","48","UNACCEPTABLE","UNACCEPTABLE","0"
"52.50268","13.35609","B-GO2628","03/09/2015 11:26:48","48","UNACCEPTABLE","GOOD","0"
"52.51613","13.31698","B-GO2628","03/09/2015 09:58:11","51","GOOD","GOOD","0"
"52.51625","13.25653","B-GO2628","03/09/2015 03:20:33","51","GOOD","GOOD","0"
"52.5184","13.38167","B-GO2628","03/09/2015 13:01:34","48","UNACCEPTABLE","GOOD","0"
"52.52205","13.37748","B-GO2628","03/09/2015 14:38:18","48","GOOD","GOOD","0"
"52.52368","13.40933","B-GO2628","03/09/2015 15:58:35","45","GOOD","GOOD","0"
"52.52542","13.44192","B-GO2628","03/09/2015 17:30:33","45","GOOD","GOOD","0"
"52.54614","13.41891","B-GO2628","03/09/2015 19:42:09","45","GOOD","GOOD","0"
