"latitude","longitude","car_plate","date","fuel","interior_state","exterior_state","free_parking_slots"
"52.563","13.3296","B-GO3072","03/09/2015 16:00:38","39","GOOD","GOOD","0"
"52.57089","13.33576","B-GO3072","03/09/2015 19:07:38","39","GOOD","GOOD","0"
"52.57444","13.31434","B-GO3072","03/09/2015 02:39:14","42","GOOD","GOOD","0"
"52.57529","13.337","B-GO3072","03/09/2015 10:48:40","39","GOOD","GOOD","0"
