"latitude","longitude","car_plate","date","fuel","interior_state","exterior_state","free_parking_slots"
"52.4957","13.48596","B-GO3035","03/09/2015 18:33:42","60","GOOD","GOOD","0"
"52.49624","13.44661","B-GO3035","03/09/2015 09:20:05","66","UNACCEPTABLE","GOOD","0"
"52.50032","13.45479","B-GO3035","03/09/2015 15:08:10","63","UNACCEPTABLE","UNACCEPTABLE","0"
"52.50956","13.45787","B-GO3035","03/09/2015 17:13:21","60","UNACCEPTABLE","UNACCEPTABLE","0"
"52.50992","13.4688","B-GO3035","03/09/2015 10:42:29","63","UNACCEPTABLE","UNACCEPTABLE","0"
"52.53014","13.3527","B-GO3035","03/09/2015 02:08:12","69","GOOD","GOOD","0"
