"latitude","longitude","car_plate","date","fuel","interior_state","exterior_state","free_parking_slots"
"52.41964","13.47991","B-GO3239","03/09/2015 23:58:01","100","GOOD","UNACCEPTABLE","0"
"52.43908","13.42755","B-GO3239","03/09/2015 04:19:18","100","GOOD","GOOD","0"
"52.5048","13.35662","B-GO3239","03/09/2015 18:39:51","100","GOOD","GOOD","0"
