"latitude","longitude","car_plate","date","fuel","interior_state","exterior_state","free_parking_slots"
"52.54941","13.44805","B-GO2118","03/09/2015 05:53:20","33","GOOD","GOOD","0"
"52.5515","13.439","B-GO2118","03/09/2015 23:58:02","30","GOOD","GOOD","0"
"52.55456","13.43052","B-GO2118","03/09/2015 17:55:14","30","GOOD","GOOD","0"
