"latitude","longitude","car_plate","date","fuel","interior_state","exterior_state","free_parking_slots"
"52.49095","13.33541","B-GO2937","03/09/2015 00:31:16","39","GOOD","GOOD","0"
"52.49443","13.33055","B-GO2937","03/09/2015 14:06:24","36","GOOD","UNACCEPTABLE","0"
"52.50232","13.31962","B-GO2937","03/09/2015 13:55:04","36","UNACCEPTABLE","UNACCEPTABLE","0"
"52.50446","13.31966","B-GO2937","03/09/2015 15:04:03","33","GOOD","UNACCEPTABLE","0"
"52.5193","13.28027","B-GO2937","03/09/2015 23:58:02","33","GOOD","GOOD","0"
"52.52548","13.32778","B-GO2937","03/09/2015 16:52:47","33","GOOD","GOOD","0"
