"latitude","longitude","car_plate","date","fuel","interior_state","exterior_state","free_parking_slots"
"52.44818","13.45008","B-GO2382","03/09/2015 15:22:34","33","UNACCEPTABLE","UNACCEPTABLE","0"
"52.46821","13.43602","B-GO2382","03/09/2015 00:04:23","39","GOOD","GOOD","0"
"52.46824","13.46672","B-GO2382","03/09/2015 00:56:04","36","UNACCEPTABLE","UNACCEPTABLE","0"
"52.46885","13.43351","B-GO2382","03/09/2015 15:33:53","33","UNACCEPTABLE","UNACCEPTABLE","0"
"52.4696","13.42348","B-GO2382","03/09/2015 18:23:01","30","GOOD","GOOD","0"
"52.47736","13.42265","B-GO2382","03/09/2015 18:05:30","30","GOOD","GOOD","0"
"52.51276","13.45032","B-GO2382","03/09/2015 21:03:41","30","GOOD","GOOD","0"
