"latitude","longitude","car_plate","date","fuel","interior_state","exterior_state","free_parking_slots"
"52.48932","13.32656","B-GO2929","03/09/2015 15:05:05","72","UNACCEPTABLE","GOOD","0"
"52.49736","13.44906","B-GO2929","03/09/2015 08:07:12","75","GOOD","GOOD","0"
"52.51303","13.38998","B-GO2929","03/09/2015 13:13:55","72","GOOD","GOOD","0"
"52.52449","13.36355","B-GO2929","03/09/2015 17:18:10","69","GOOD","GOOD","0"
"52.53432","13.40107","B-GO2929","03/09/2015 05:05:49","78","UNACCEPTABLE","UNACCEPTABLE","0"
"52.54895","13.45939","B-GO2929","03/09/2015 20:41:00","66","UNACCEPTABLE","GOOD","0"
