"latitude","longitude","car_plate","date","fuel","interior_state","exterior_state","free_parking_slots"
"52.42865","13.43568","B-GO2873","03/09/2015 22:48:43","100","GOOD","GOOD","0"
"52.46425","13.41182","B-GO2873","03/09/2015 09:33:29","48","UNACCEPTABLE","UNACCEPTABLE","0"
"52.48743","13.38436","B-GO2873","03/09/2015 11:24:44","45","UNACCEPTABLE","UNACCEPTABLE","0"
"52.52454","13.40805","B-GO2873","03/09/2015 12:45:06","45","UNACCEPTABLE","UNACCEPTABLE","0"
"52.53432","13.41588","B-GO2873","03/09/2015 14:24:57","45","GOOD","GOOD","0"
"52.5367","13.37775","B-GO2873","03/09/2015 07:48:39","51","GOOD","GOOD","0"
"52.55052","13.37068","B-GO2873","03/09/2015 17:54:12","42","GOOD","GOOD","0"
"52.55781","13.37223","B-GO2873","03/09/2015 20:20:21","39","GOOD","GOOD","0"
"52.56199","13.35904","B-GO2873","03/09/2015 19:52:34","42","GOOD","GOOD","0"
