"latitude","longitude","car_plate","date","fuel","interior_state","exterior_state","free_parking_slots"
"52.47895","13.43205","B-GO2419","03/09/2015 23:53:52","100","UNACCEPTABLE","UNACCEPTABLE","0"
"52.49811","13.43569","B-GO2419","03/09/2015 20:01:50","39","UNACCEPTABLE","GOOD","0"
"52.50184","13.44285","B-GO2419","03/09/2015 17:47:01","42","UNACCEPTABLE","UNACCEPTABLE","0"
"52.51009","13.40592","B-GO2419","03/09/2015 10:50:44","42","UNACCEPTABLE","UNACCEPTABLE","0"
"52.53488","13.39825","B-GO2419","03/09/2015 19:33:23","39","GOOD","GOOD","0"
"52.56335","13.39369","B-GO2419","03/09/2015 07:17:48","45","GOOD","GOOD","0"
