"latitude","longitude","car_plate","date","fuel","interior_state","exterior_state","free_parking_slots"
"52.50842","13.36809","B-GO2530","03/09/2015 15:16:24","54","GOOD","GOOD","0"
"52.50887","13.36846","B-GO2530","03/09/2015 14:41:23","54","GOOD","GOOD","0"
"52.51634","13.3186","B-GO2530","03/09/2015 22:49:46","51","GOOD","GOOD","0"
"52.54738","13.36685","B-GO2530","03/09/2015 04:57:32","57","GOOD","GOOD","0"
"52.5496","13.35444","B-GO2530","03/09/2015 18:54:17","51","GOOD","GOOD","0"
"52.54976","13.35461","B-GO2530","03/09/2015 19:28:15","51","UNACCEPTABLE","UNACCEPTABLE","0"
"52.56935","13.38347","B-GO2530","03/09/2015 08:42:05","57","GOOD","GOOD","0"
"52.57002","13.40563","B-GO2530","03/09/2015 23:38:24","51","GOOD","GOOD","0"
