"latitude","longitude","car_plate","date","fuel","interior_state","exterior_state","free_parking_slots"
"52.50798","13.30837","B-GO2102","03/09/2015 18:33:42","60","GOOD","UNACCEPTABLE","0"
"52.51126","13.26612","B-GO2102","03/09/2015 23:58:02","60","GOOD","GOOD","0"
"52.53497","13.39697","B-GO2102","03/09/2015 17:02:03","63","GOOD","GOOD","0"
"52.56698","13.41871","B-GO2102","03/09/2015 05:39:55","63","GOOD","GOOD","0"
