"latitude","longitude","car_plate","date","fuel","interior_state","exterior_state","free_parking_slots"
"52.4214","13.3895","B-GO2559","03/09/2015 17:53:11","51","GOOD","GOOD","0"
"52.42229","13.46334","B-GO2559","03/09/2015 05:31:39","51","GOOD","GOOD","0"
"52.43119","13.45046","B-GO2559","03/09/2015 14:15:41","51","GOOD","GOOD","0"
"52.44484","13.43219","B-GO2559","03/09/2015 23:58:01","48","GOOD","GOOD","0"
"52.47005","13.43803","B-GO2559","03/09/2015 02:19:34","54","GOOD","GOOD","0"
