"latitude","longitude","car_plate","date","fuel","interior_state","exterior_state","free_parking_slots"
"52.45657","13.38104","B-GO2307","03/09/2015 00:00:16","18","GOOD","GOOD","0"
"52.45695","13.38381","B-GO2307","03/09/2015 07:53:49","15","GOOD","GOOD","0"
"52.49741","13.34737","B-GO2307","03/09/2015 21:12:58","12","GOOD","GOOD","0"
"52.5063","13.37564","B-GO2307","03/09/2015 12:28:38","12","GOOD","UNACCEPTABLE","0"
