"latitude","longitude","car_plate","date","fuel","interior_state","exterior_state","free_parking_slots"
"52.42258","13.48326","B-GO3286","03/09/2015 23:58:02","100","GOOD","GOOD","0"
"52.43076","13.46989","B-GO3286","03/09/2015 00:01:18","100","GOOD","GOOD","0"
