"latitude","longitude","car_plate","date","fuel","interior_state","exterior_state","free_parking_slots"
"52.50887","13.36385","B-GO2960","03/09/2015 13:43:44","100","GOOD","GOOD","0"
"52.51098","13.41263","B-GO2960","03/09/2015 04:58:33","100","GOOD","GOOD","0"
"52.52782","13.40099","B-GO2960","03/09/2015 20:23:26","100","GOOD","GOOD","0"
"52.53156","13.38303","B-GO2960","03/09/2015 15:59:37","100","GOOD","GOOD","0"
"52.53165","13.42576","B-GO2960","03/09/2015 22:11:26","100","UNACCEPTABLE","UNACCEPTABLE","0"
"52.53172","13.42597","B-GO2960","03/09/2015 23:36:19","100","UNACCEPTABLE","UNACCEPTABLE","0"
"52.53173","13.38306","B-GO2960","03/09/2015 07:27:04","100","GOOD","GOOD","0"
"52.5354","13.38162","B-GO2960","03/09/2015 19:21:02","100","GOOD","GOOD","0"
"52.53906","13.42239","B-GO2960","03/09/2015 22:45:36","100","UNACCEPTABLE","UNACCEPTABLE","0"
"52.55025","13.41403","B-GO2960","03/09/2015 22:58:06","100","UNACCEPTABLE","UNACCEPTABLE","0"
"52.55355","13.40104","B-GO2960","03/09/2015 20:55:25","100","UNACCEPTABLE","UNACCEPTABLE","0"
"52.56199","13.41641","B-GO2960","03/09/2015 17:53:11","100","GOOD","GOOD","0"
