"latitude","longitude","car_plate","date","fuel","interior_state","exterior_state","free_parking_slots"
"52.46861","13.3827","B-GO2319","03/09/2015 19:35:27","42","GOOD","GOOD","0"
"52.50699","13.34715","B-GO2319","03/09/2015 13:00:32","42","GOOD","GOOD","0"
"52.50788","13.33412","B-GO2319","03/09/2015 16:14:04","42","GOOD","GOOD","0"
"52.5094","13.45836","B-GO2319","03/09/2015 00:06:27","48","GOOD","GOOD","0"
"52.51527","13.47317","B-GO2319","03/09/2015 00:34:22","45","GOOD","GOOD","0"
"52.53531","13.43906","B-GO2319","03/09/2015 05:45:04","45","GOOD","GOOD","0"
"52.55561","13.18817","B-GO2319","03/09/2015 20:16:14","36","GOOD","GOOD","0"
