"latitude","longitude","car_plate","date","fuel","interior_state","exterior_state","free_parking_slots"
"52.42258","13.42159","B-GO2660","03/09/2015 05:03:45","60","GOOD","UNACCEPTABLE","0"
"52.47889","13.48126","B-GO2660","03/09/2015 23:58:01","51","GOOD","GOOD","0"
"52.48362","13.42749","B-GO2660","03/09/2015 13:53:01","54","GOOD","GOOD","0"
"52.48363","13.43013","B-GO2660","03/09/2015 14:53:44","51","GOOD","GOOD","0"
"52.48446","13.43672","B-GO2660","03/09/2015 14:10:31","54","UNACCEPTABLE","GOOD","0"
"52.48529","13.33138","B-GO2660","03/09/2015 11:22:40","57","UNACCEPTABLE","UNACCEPTABLE","0"
"52.48883","13.33799","B-GO2660","03/09/2015 13:11:51","54","GOOD","GOOD","0"
