"latitude","longitude","car_plate","date","fuel","interior_state","exterior_state","free_parking_slots"
"52.4337","13.41012","B-GO2093","03/09/2015 00:00:15","15","GOOD","GOOD","0"
"52.45479","13.41871","B-GO2093","03/09/2015 23:58:01","15","UNACCEPTABLE","UNACCEPTABLE","0"
"52.46859","13.38258","B-GO2093","03/09/2015 09:06:43","15","GOOD","GOOD","0"
