"latitude","longitude","car_plate","date","fuel","interior_state","exterior_state","free_parking_slots"
"52.51279","13.51378","B-GO2594","03/09/2015 23:58:01","63","GOOD","UNACCEPTABLE","0"
"52.51294","13.51358","B-GO2594","03/09/2015 00:01:17","63","GOOD","UNACCEPTABLE","0"
