"latitude","longitude","car_plate","date","fuel","interior_state","exterior_state","free_parking_slots"
"52.46048","13.34237","B-GO2749","03/09/2015 02:49:34","72","GOOD","GOOD","0"
"52.47226","13.29818","B-GO2749","03/09/2015 13:48:53","66","GOOD","GOOD","0"
"52.50107","13.31316","B-GO2749","03/09/2015 09:12:55","72","GOOD","GOOD","0"
"52.50111","13.33721","B-GO2749","03/09/2015 07:10:37","72","GOOD","GOOD","0"
"52.50468","13.32214","B-GO2749","03/09/2015 22:54:59","60","GOOD","GOOD","0"
"52.50517","13.32551","B-GO2749","03/09/2015 18:53:16","66","GOOD","GOOD","0"
"52.5084","13.32625","B-GO2749","03/09/2015 19:33:23","63","GOOD","GOOD","0"
"52.5138","13.26006","B-GO2749","03/09/2015 12:12:10","69","GOOD","GOOD","0"
"52.52414","13.32979","B-GO2749","03/09/2015 10:03:21","69","GOOD","GOOD","0"
"52.52767","13.40281","B-GO2749","03/09/2015 21:01:38","60","GOOD","GOOD","0"
"52.55276","13.40634","B-GO2749","03/09/2015 23:39:26","57","GOOD","GOOD","0"
