"latitude","longitude","car_plate","date","fuel","interior_state","exterior_state","free_parking_slots"
"52.43448","13.31271","B-GO3275","03/09/2015 19:08:40","57","UNACCEPTABLE","UNACCEPTABLE","0"
"52.45","13.31125","B-GO3275","03/09/2015 01:03:16","60","GOOD","GOOD","0"
"52.48297","13.43121","B-GO3275","03/09/2015 21:11:56","57","GOOD","UNACCEPTABLE","0"
"52.48921","13.42776","B-GO3275","03/09/2015 21:59:05","57","GOOD","UNACCEPTABLE","0"
"52.49877","13.3625","B-GO3275","03/09/2015 20:54:24","57","GOOD","GOOD","0"
"52.51718","13.30158","B-GO3275","03/09/2015 23:04:20","54","GOOD","UNACCEPTABLE","0"
