"latitude","longitude","car_plate","date","fuel","interior_state","exterior_state","free_parking_slots"
"52.55997","13.32549","B-GO2337","03/09/2015 08:15:25","78","UNACCEPTABLE","UNACCEPTABLE","0"
"52.57567","13.34877","B-GO2337","03/09/2015 23:58:02","78","GOOD","GOOD","0"
"52.58571","13.27681","B-GO2337","03/09/2015 04:27:37","81","GOOD","GOOD","0"
