"latitude","longitude","car_plate","date","fuel","interior_state","exterior_state","free_parking_slots"
"52.42204","13.40574","B-GO3278","03/09/2015 17:19:11","96","GOOD","GOOD","0"
"52.43881","13.33459","B-GO3278","03/09/2015 23:58:02","90","GOOD","GOOD","0"
"52.45803","13.38591","B-GO3278","03/09/2015 20:42:02","93","GOOD","GOOD","0"
