"latitude","longitude","car_plate","date","fuel","interior_state","exterior_state","free_parking_slots"
"52.53126","13.47679","B-GO2656","03/09/2015 22:35:14","66","UNACCEPTABLE","UNACCEPTABLE","0"
"52.54304","13.31325","B-GO2656","03/09/2015 07:07:32","69","GOOD","GOOD","0"
"52.55034","13.29771","B-GO2656","03/09/2015 17:25:24","69","GOOD","GOOD","0"
