"latitude","longitude","car_plate","date","fuel","interior_state","exterior_state","free_parking_slots"
"52.48514","13.42978","B-GO2179","03/09/2015 23:39:25","100","GOOD","GOOD","0"
"52.4873","13.42021","B-GO2179","03/09/2015 21:12:57","100","GOOD","GOOD","0"
"52.48829","13.38698","B-GO2179","03/09/2015 19:32:21","100","GOOD","GOOD","0"
"52.52195","13.42354","B-GO2179","03/09/2015 15:43:09","100","GOOD","GOOD","0"
"52.52413","13.38301","B-GO2179","03/09/2015 04:16:12","12","GOOD","GOOD","0"
"52.53242","13.42428","B-GO2179","03/09/2015 22:01:08","100","GOOD","GOOD","0"
"52.53796","13.4127","B-GO2179","03/09/2015 14:53:44","100","GOOD","GOOD","0"
"52.53929","13.3931","B-GO2179","03/09/2015 09:40:41","100","GOOD","GOOD","0"
