"latitude","longitude","car_plate","date","fuel","interior_state","exterior_state","free_parking_slots"
"52.44071","13.36402","B-GO3306","03/09/2015 15:38:00","45","GOOD","GOOD","0"
"52.50332","13.32849","B-GO3306","03/09/2015 15:00:59","48","GOOD","GOOD","0"
"52.51409","13.39517","B-GO3306","03/09/2015 09:29:23","51","GOOD","GOOD","0"
"52.5331","13.41876","B-GO3306","03/09/2015 00:49:52","51","GOOD","GOOD","0"
"52.54035","13.41894","B-GO3306","03/09/2015 11:18:33","48","GOOD","GOOD","0"
