"latitude","longitude","car_plate","date","fuel","interior_state","exterior_state","free_parking_slots"
"52.47061","13.31883","B-GO2942","03/09/2015 12:05:58","45","GOOD","GOOD","0"
"52.47365","13.30047","B-GO2942","03/09/2015 18:03:27","39","GOOD","GOOD","0"
"52.4947","13.38878","B-GO2942","03/09/2015 16:42:28","42","GOOD","GOOD","0"
"52.5107","13.34519","B-GO2942","03/09/2015 17:27:26","42","GOOD","GOOD","0"
"52.51328","13.29409","B-GO2942","03/09/2015 19:03:32","36","GOOD","GOOD","0"
"52.51555","13.26169","B-GO2942","03/09/2015 05:00:39","48","GOOD","GOOD","0"
"52.52814","13.3268","B-GO2942","03/09/2015 20:55:25","33","GOOD","GOOD","0"
"52.53198","13.34279","B-GO2942","03/09/2015 19:31:19","33","GOOD","GOOD","0"
"52.53331","13.40402","B-GO2942","03/09/2015 15:14:20","42","GOOD","UNACCEPTABLE","0"
"52.53714","13.26195","B-GO2942","03/09/2015 07:27:04","48","GOOD","GOOD","0"
"52.54178","13.40793","B-GO2942","03/09/2015 23:34:14","30","GOOD","GOOD","0"
