"latitude","longitude","car_plate","date","fuel","interior_state","exterior_state","free_parking_slots"
"52.45715","13.28152","B-GO3405","03/09/2015 00:00:16","66","GOOD","GOOD","0"
"52.49154","13.31463","B-GO3405","03/09/2015 22:03:13","63","GOOD","GOOD","0"
