"latitude","longitude","car_plate","date","fuel","interior_state","exterior_state","free_parking_slots"
"52.463","13.39528","B-GO2304","03/09/2015 19:04:34","24","GOOD","GOOD","0"
"52.47355","13.44796","B-GO2304","03/09/2015 16:56:54","24","UNACCEPTABLE","UNACCEPTABLE","0"
"52.49924","13.36669","B-GO2304","03/09/2015 14:13:38","30","GOOD","GOOD","0"
"52.52705","13.39685","B-GO2304","03/09/2015 15:33:53","27","GOOD","GOOD","0"
"52.53045","13.42335","B-GO2304","03/09/2015 00:15:46","33","GOOD","GOOD","0"
