"latitude","longitude","car_plate","date","fuel","interior_state","exterior_state","free_parking_slots"
"52.47499","13.29222","B-GO2270","03/09/2015 01:04:17","57","GOOD","GOOD","0"
"52.50892","13.36892","B-GO2270","03/09/2015 12:41:59","54","GOOD","GOOD","0"
"52.52588","13.39867","B-GO2270","03/09/2015 11:03:05","57","GOOD","GOOD","0"
"52.53315","13.33606","B-GO2270","03/09/2015 22:54:58","45","UNACCEPTABLE","UNACCEPTABLE","0"
"52.58663","13.28368","B-GO2270","03/09/2015 16:49:41","51","GOOD","GOOD","0"
"52.58737","13.28266","B-GO2270","03/09/2015 19:49:29","51","GOOD","GOOD","0"
