"latitude","longitude","car_plate","date","fuel","interior_state","exterior_state","free_parking_slots"
"52.48196","13.27096","B-GO2061","03/09/2015 19:18:59","100","GOOD","GOOD","0"
"52.48205","13.27071","B-GO2061","03/09/2015 17:39:47","100","GOOD","GOOD","0"
"52.48714","13.26136","B-GO2061","03/09/2015 17:52:09","100","GOOD","GOOD","0"
"52.50129","13.30651","B-GO2061","03/09/2015 21:26:26","100","GOOD","GOOD","0"
"52.51783","13.18657","B-GO2061","03/09/2015 22:35:13","100","UNACCEPTABLE","UNACCEPTABLE","0"
"52.52277","13.3244","B-GO2061","03/09/2015 16:51:45","100","GOOD","UNACCEPTABLE","0"
"52.52739","13.19513","B-GO2061","03/09/2015 23:28:03","100","GOOD","GOOD","0"
"52.53902","13.22237","B-GO2061","03/09/2015 15:07:08","100","GOOD","GOOD","0"
