"latitude","longitude","car_plate","date","fuel","interior_state","exterior_state","free_parking_slots"
"52.45872","13.32971","B-GO2313","03/09/2015 07:51:46","100","GOOD","GOOD","0"
"52.47274","13.29355","B-GO2313","03/09/2015 01:03:16","100","GOOD","GOOD","0"
"52.47876","13.4211","B-GO2313","03/09/2015 19:45:22","78","GOOD","GOOD","0"
"52.48219","13.34237","B-GO2313","03/09/2015 23:58:01","78","GOOD","GOOD","0"
"52.48712","13.33314","B-GO2313","03/09/2015 08:19:31","100","GOOD","GOOD","0"
"52.49569","13.36262","B-GO2313","03/09/2015 10:17:44","100","GOOD","GOOD","0"
"52.4977","13.32038","B-GO2313","03/09/2015 09:24:11","100","GOOD","GOOD","0"
"52.50227","13.33618","B-GO2313","03/09/2015 14:23:55","96","GOOD","GOOD","0"
"52.50302","13.31728","B-GO2313","03/09/2015 13:47:50","96","GOOD","GOOD","0"
"52.50314","13.33702","B-GO2313","03/09/2015 12:38:55","96","GOOD","GOOD","0"
"52.50316","13.43807","B-GO2313","03/09/2015 18:49:07","84","GOOD","GOOD","0"
"52.5332","13.42472","B-GO2313","03/09/2015 16:00:38","90","GOOD","GOOD","0"
"52.5336","13.42587","B-GO2313","03/09/2015 17:13:22","90","GOOD","GOOD","0"
"52.53468","13.39585","B-GO2313","03/09/2015 17:55:14","87","UNACCEPTABLE","GOOD","0"
"52.53483","13.40437","B-GO2313","03/09/2015 00:04:23","100","GOOD","GOOD","0"
