"latitude","longitude","car_plate","date","fuel","interior_state","exterior_state","free_parking_slots"
"52.42573","13.4722","B-GO2162","03/09/2015 06:54:09","51","GOOD","GOOD","0"
"52.4286","13.46973","B-GO2162","03/09/2015 23:58:02","100","GOOD","GOOD","0"
"52.44469","13.42714","B-GO2162","03/09/2015 05:18:13","51","GOOD","GOOD","0"
"52.45223","13.43628","B-GO2162","03/09/2015 17:09:15","100","GOOD","GOOD","0"
"52.47747","13.43754","B-GO2162","03/09/2015 14:05:22","42","GOOD","GOOD","0"
"52.47846","13.43034","B-GO2162","03/09/2015 12:09:04","42","GOOD","GOOD","0"
"52.48409","13.27754","B-GO2162","03/09/2015 10:54:52","45","GOOD","GOOD","0"
"52.50344","13.30941","B-GO2162","03/09/2015 09:46:53","48","GOOD","GOOD","0"
"52.50818","13.37665","B-GO2162","03/09/2015 11:43:19","45","GOOD","GOOD","0"
