"latitude","longitude","car_plate","date","fuel","interior_state","exterior_state","free_parking_slots"
"52.53921","13.32067","B-GO2087","03/09/2015 00:00:15","100","GOOD","GOOD","0"
"52.54526","13.30882","B-GO2087","03/09/2015 09:28:18","100","GOOD","GOOD","0"
