"latitude","longitude","car_plate","date","fuel","interior_state","exterior_state","free_parking_slots"
"52.42967","13.26177","B-GO2774","03/09/2015 00:00:16","42","GOOD","GOOD","0"
"52.55059","13.39525","B-GO2774","03/09/2015 15:58:34","36","GOOD","GOOD","0"
