"latitude","longitude","car_plate","date","fuel","interior_state","exterior_state","free_parking_slots"
"52.45706","13.3245","B-GO3008","03/09/2015 15:50:21","57","GOOD","GOOD","0"
"52.46491","13.34654","B-GO3008","03/09/2015 21:43:01","57","GOOD","GOOD","0"
"52.49464","13.30132","B-GO3008","03/09/2015 06:12:54","63","GOOD","GOOD","0"
"52.49895","13.31619","B-GO3008","03/09/2015 10:56:55","60","GOOD","GOOD","0"
"52.50955","13.32935","B-GO3008","03/09/2015 12:00:50","60","GOOD","GOOD","0"
"52.51198","13.31748","B-GO3008","03/09/2015 14:45:29","60","GOOD","GOOD","0"
"52.51341","13.26569","B-GO3008","03/09/2015 08:13:21","63","GOOD","GOOD","0"
"52.5188","13.30267","B-GO3008","03/09/2015 03:43:13","66","GOOD","GOOD","0"
