"latitude","longitude","car_plate","date","fuel","interior_state","exterior_state","free_parking_slots"
"52.45728","13.52811","B-GO2864","03/09/2015 21:41:55","60","GOOD","GOOD","0"
"52.50749","13.38683","B-GO2864","03/09/2015 12:28:38","63","UNACCEPTABLE","GOOD","0"
"52.51656","13.4652","B-GO2864","03/09/2015 15:52:24","63","GOOD","GOOD","0"
"52.51809","13.45946","B-GO2864","03/09/2015 02:15:27","75","GOOD","GOOD","0"
"52.52453","13.41005","B-GO2864","03/09/2015 11:51:35","66","GOOD","UNACCEPTABLE","0"
"52.52709","13.40824","B-GO2864","03/09/2015 09:59:14","69","GOOD","GOOD","0"
"52.56928","13.41164","B-GO2864","03/09/2015 08:10:17","72","GOOD","UNACCEPTABLE","0"
