"latitude","longitude","car_plate","date","fuel","interior_state","exterior_state","free_parking_slots"
"52.42444","13.39748","B-GO2155","03/09/2015 10:43:31","84","GOOD","GOOD","0"
"52.4245","13.39746","B-GO2155","03/09/2015 10:17:44","84","GOOD","GOOD","0"
"52.45122","13.32482","B-GO2155","03/09/2015 23:58:01","72","GOOD","GOOD","0"
"52.45368","13.43811","B-GO2155","03/09/2015 02:43:21","100","GOOD","UNACCEPTABLE","0"
"52.48558","13.39442","B-GO2155","03/09/2015 09:32:27","90","GOOD","GOOD","0"
"52.52892","13.33992","B-GO2155","03/09/2015 18:15:49","78","UNACCEPTABLE","UNACCEPTABLE","0"
"52.54055","13.36068","B-GO2155","03/09/2015 19:33:23","75","GOOD","GOOD","0"
