"latitude","longitude","car_plate","date","fuel","interior_state","exterior_state","free_parking_slots"
"52.4219","13.47322","B-GO3392","03/09/2015 23:58:01","54","GOOD","GOOD","0"
"52.42193","13.47318","B-GO3392","03/09/2015 22:43:31","54","GOOD","GOOD","0"
"52.44465","13.26704","B-GO3392","03/09/2015 20:18:18","60","GOOD","GOOD","0"
"52.46187","13.32462","B-GO3392","03/09/2015 22:13:30","57","GOOD","GOOD","0"
"52.52005","13.33669","B-GO3392","03/09/2015 02:58:52","75","GOOD","GOOD","0"
"52.5232","13.37949","B-GO3392","03/09/2015 11:15:26","69","UNACCEPTABLE","GOOD","0"
"52.52789","13.37936","B-GO3392","03/09/2015 18:19:56","63","GOOD","GOOD","0"
"52.53774","13.42372","B-GO3392","03/09/2015 08:40:02","72","GOOD","GOOD","0"
"52.54285","13.35391","B-GO3392","03/09/2015 16:25:23","69","GOOD","GOOD","0"
"52.54658","13.30363","B-GO3392","03/09/2015 17:12:20","66","GOOD","GOOD","0"
