"latitude","longitude","car_plate","date","fuel","interior_state","exterior_state","free_parking_slots"
"52.49643","13.41594","B-GO2925","03/09/2015 14:53:44","96","GOOD","GOOD","0"
"52.52198","13.44951","B-GO2925","03/09/2015 07:42:30","100","UNACCEPTABLE","UNACCEPTABLE","0"
"52.53152","13.39643","B-GO2925","03/09/2015 12:16:17","100","GOOD","UNACCEPTABLE","0"
"52.5322","13.45621","B-GO2925","03/09/2015 08:49:16","100","GOOD","GOOD","0"
"52.54193","13.34877","B-GO2925","03/09/2015 00:08:31","100","UNACCEPTABLE","UNACCEPTABLE","0"
