"latitude","longitude","car_plate","date","fuel","interior_state","exterior_state","free_parking_slots"
"52.41994","13.47996","B-GO2566","03/09/2015 13:23:09","100","UNACCEPTABLE","UNACCEPTABLE","0"
"52.42829","13.45837","B-GO2566","03/09/2015 13:50:58","100","UNACCEPTABLE","UNACCEPTABLE","0"
"52.44003","13.43277","B-GO2566","03/09/2015 09:55:05","100","GOOD","GOOD","0"
