"latitude","longitude","car_plate","date","fuel","interior_state","exterior_state","free_parking_slots"
"52.46411","13.31432","B-GO2633","03/09/2015 04:45:09","12","GOOD","GOOD","0"
"52.47986","13.32456","B-GO2633","03/09/2015 23:58:02","100","GOOD","GOOD","0"
"52.50125","13.38459","B-GO2633","03/09/2015 18:07:34","100","GOOD","GOOD","0"
"52.50329","13.32824","B-GO2633","03/09/2015 13:28:18","12","GOOD","GOOD","0"
