"latitude","longitude","car_plate","date","fuel","interior_state","exterior_state","free_parking_slots"
"52.44187","13.3315","B-GO2450","03/09/2015 00:00:16","100","GOOD","GOOD","0"
"52.45702","13.32333","B-GO2450","03/09/2015 07:20:53","100","GOOD","GOOD","0"
"52.47502","13.38589","B-GO2450","03/09/2015 23:58:02","84","GOOD","GOOD","0"
"52.48695","13.38399","B-GO2450","03/09/2015 19:39:36","93","GOOD","GOOD","0"
"52.51142","13.3896","B-GO2450","03/09/2015 17:19:12","96","GOOD","GOOD","0"
"52.51738","13.41233","B-GO2450","03/09/2015 16:20:15","96","GOOD","GOOD","0"
"52.51855","13.41124","B-GO2450","03/09/2015 10:04:24","100","GOOD","GOOD","0"
"52.53083","13.35075","B-GO2450","03/09/2015 11:28:52","100","GOOD","GOOD","0"
"52.55034","13.29771","B-GO2450","03/09/2015 21:46:41","90","GOOD","GOOD","0"
