"latitude","longitude","car_plate","date","fuel","interior_state","exterior_state","free_parking_slots"
"52.44783","13.35535","B-GO3200","03/09/2015 05:18:13","24","GOOD","GOOD","0"
"52.4794","13.28866","B-GO3200","03/09/2015 13:20:04","21","GOOD","GOOD","0"
"52.48764","13.38963","B-GO3200","03/09/2015 18:19:55","18","GOOD","UNACCEPTABLE","0"
"52.50033","13.2944","B-GO3200","03/09/2015 17:02:02","21","GOOD","GOOD","0"
"52.56927","13.39918","B-GO3200","03/09/2015 23:19:47","15","GOOD","GOOD","0"
