"latitude","longitude","car_plate","date","fuel","interior_state","exterior_state","free_parking_slots"
"52.46419","13.39407","B-GO2733","03/09/2015 23:58:02","100","GOOD","GOOD","0"
"52.47068","13.36664","B-GO2733","03/09/2015 00:01:18","100","GOOD","GOOD","0"
