"latitude","longitude","car_plate","date","fuel","interior_state","exterior_state","free_parking_slots"
"52.47228","13.29775","B-GO3064","03/09/2015 21:26:26","33","GOOD","GOOD","0"
"52.48682","13.35024","B-GO3064","03/09/2015 19:15:51","33","GOOD","GOOD","0"
"52.48913","13.35339","B-GO3064","03/09/2015 17:35:40","36","GOOD","GOOD","0"
"52.49228","13.34461","B-GO3064","03/09/2015 11:44:20","39","UNACCEPTABLE","UNACCEPTABLE","0"
"52.49952","13.33038","B-GO3064","03/09/2015 15:54:27","36","GOOD","GOOD","0"
"52.50094","13.36318","B-GO3064","03/09/2015 10:27:00","39","UNACCEPTABLE","GOOD","0"
"52.50618","13.32298","B-GO3064","03/09/2015 22:28:59","30","GOOD","GOOD","0"
"52.52899","13.33835","B-GO3064","03/09/2015 09:54:04","42","GOOD","UNACCEPTABLE","0"
