"latitude","longitude","car_plate","date","fuel","interior_state","exterior_state","free_parking_slots"
"52.47247","13.46423","B-GO3414","03/09/2015 00:04:23","100","GOOD","GOOD","0"
"52.47447","13.43749","B-GO3414","03/09/2015 08:08:13","100","UNACCEPTABLE","UNACCEPTABLE","0"
"52.4766","13.43687","B-GO3414","03/09/2015 23:58:01","96","GOOD","GOOD","0"
"52.47881","13.43066","B-GO3414","03/09/2015 08:46:11","100","GOOD","GOOD","0"
"52.47885","13.43148","B-GO3414","03/09/2015 13:45:47","96","GOOD","GOOD","0"
"52.48018","13.43294","B-GO3414","03/09/2015 12:27:35","100","GOOD","GOOD","0"
"52.50274","13.40658","B-GO3414","03/09/2015 00:52:59","100","GOOD","GOOD","0"
