"latitude","longitude","car_plate","date","fuel","interior_state","exterior_state","free_parking_slots"
"52.38976","13.51782","B-GO2731","03/09/2015 16:06:50","12","GOOD","GOOD","0"
"52.47636","13.32418","B-GO2731","03/09/2015 01:46:32","15","GOOD","GOOD","0"
"52.48893","13.34912","B-GO2731","03/09/2015 21:34:41","100","GOOD","GOOD","0"
"52.49903","13.30923","B-GO2731","03/09/2015 23:13:37","100","UNACCEPTABLE","UNACCEPTABLE","0"
"52.50193","13.30772","B-GO2731","03/09/2015 23:58:01","100","UNACCEPTABLE","UNACCEPTABLE","0"
