"latitude","longitude","car_plate","date","fuel","interior_state","exterior_state","free_parking_slots"
"52.49689","13.42049","B-GO2726","03/09/2015 23:05:22","81","GOOD","GOOD","0"
"52.54753","13.31607","B-GO2726","03/09/2015 17:52:09","87","GOOD","GOOD","0"
"52.54807","13.30092","B-GO2726","03/09/2015 07:38:23","87","GOOD","GOOD","0"
"52.55718","13.38631","B-GO2726","03/09/2015 20:47:11","84","GOOD","GOOD","0"
"52.56913","13.38097","B-GO2726","03/09/2015 02:53:42","93","GOOD","GOOD","0"
