"latitude","longitude","car_plate","date","fuel","interior_state","exterior_state","free_parking_slots"
"52.53029","13.33986","B-GO2808","03/09/2015 00:00:15","100","GOOD","GOOD","0"
"52.55994","13.34572","B-GO2808","03/09/2015 17:42:53","100","GOOD","GOOD","0"
