"latitude","longitude","car_plate","date","fuel","interior_state","exterior_state","free_parking_slots"
"52.4235","13.42293","B-GO2257","03/09/2015 12:51:17","75","UNACCEPTABLE","GOOD","0"
"52.43331","13.23498","B-GO2257","03/09/2015 17:31:34","72","GOOD","GOOD","0"
"52.46109","13.30096","B-GO2257","03/09/2015 11:22:41","78","UNACCEPTABLE","GOOD","0"
"52.48566","13.26983","B-GO2257","03/09/2015 00:00:16","81","GOOD","GOOD","0"
