"latitude","longitude","car_plate","date","fuel","interior_state","exterior_state","free_parking_slots"
"52.44127","13.28035","B-GO2240","03/09/2015 00:00:15","66","UNACCEPTABLE","UNACCEPTABLE","0"
"52.4576","13.29437","B-GO2240","03/09/2015 15:39:02","63","UNACCEPTABLE","GOOD","0"
"52.57248","13.32159","B-GO2240","03/09/2015 19:02:30","60","GOOD","GOOD","0"
