"latitude","longitude","car_plate","date","fuel","interior_state","exterior_state","free_parking_slots"
"52.54604","13.3549","B-GO3102","03/09/2015 11:32:59","100","GOOD","GOOD","0"
"52.57467","13.31705","B-GO3102","03/09/2015 15:20:31","100","GOOD","GOOD","0"
