"latitude","longitude","car_plate","date","fuel","interior_state","exterior_state","free_parking_slots"
"52.44261","13.32029","B-GO2427","03/09/2015 22:34:09","100","GOOD","GOOD","0"
"52.47408","13.32672","B-GO2427","03/09/2015 21:56:59","100","GOOD","GOOD","0"
"52.47949","13.34977","B-GO2427","03/09/2015 21:17:09","100","GOOD","GOOD","0"
"52.49705","13.30458","B-GO2427","03/09/2015 18:35:44","100","GOOD","GOOD","0"
"52.52718","13.36152","B-GO2427","03/09/2015 18:13:45","100","GOOD","GOOD","0"
"52.52723","13.36164","B-GO2427","03/09/2015 14:58:53","100","GOOD","GOOD","0"
"52.53676","13.39569","B-GO2427","03/09/2015 11:12:21","100","GOOD","GOOD","0"
"52.5519","13.38058","B-GO2427","03/09/2015 00:01:17","30","GOOD","UNACCEPTABLE","0"
"52.55212","13.36518","B-GO2427","03/09/2015 09:46:52","100","GOOD","GOOD","0"
"52.55284","13.38543","B-GO2427","03/09/2015 07:37:21","30","UNACCEPTABLE","GOOD","0"
"52.55602","13.37239","B-GO2427","03/09/2015 07:13:41","30","UNACCEPTABLE","GOOD","0"
