"latitude","longitude","car_plate","date","fuel","interior_state","exterior_state","free_parking_slots"
"52.51457","13.4358","B-GO2413","03/09/2015 00:01:18","90","GOOD","GOOD","0"
"52.5237","13.38054","B-GO2413","03/09/2015 14:02:16","87","GOOD","GOOD","0"
"52.53791","13.48814","B-GO2413","03/09/2015 23:41:30","78","GOOD","GOOD","0"
"52.54676","13.5017","B-GO2413","03/09/2015 17:48:03","81","GOOD","GOOD","0"
