"latitude","longitude","car_plate","date","fuel","interior_state","exterior_state","free_parking_slots"
"52.43389","13.38998","B-GO3212","03/09/2015 23:18:46","30","GOOD","GOOD","0"
"52.46482","13.33997","B-GO3212","03/09/2015 19:55:41","33","GOOD","GOOD","0"
"52.46504","13.32161","B-GO3212","03/09/2015 19:00:28","33","GOOD","GOOD","0"
"52.47626","13.30505","B-GO3212","03/09/2015 15:44:11","36","GOOD","GOOD","0"
"52.49818","13.31077","B-GO3212","03/09/2015 18:30:14","33","GOOD","GOOD","0"
"52.50036","13.43388","B-GO3212","03/09/2015 07:52:48","42","GOOD","GOOD","0"
"52.50328","13.3284","B-GO3212","03/09/2015 13:45:48","39","GOOD","GOOD","0"
"52.50331","13.32845","B-GO3212","03/09/2015 11:11:20","39","GOOD","GOOD","0"
"52.50501","13.33767","B-GO3212","03/09/2015 17:22:17","36","UNACCEPTABLE","UNACCEPTABLE","0"
"52.50776","13.39753","B-GO3212","03/09/2015 08:32:52","39","GOOD","GOOD","0"
"52.5078","13.39643","B-GO3212","03/09/2015 10:12:37","39","GOOD","GOOD","0"
"52.50811","13.39687","B-GO3212","03/09/2015 08:24:39","39","GOOD","GOOD","0"
"52.5082","13.39694","B-GO3212","03/09/2015 09:00:34","39","GOOD","GOOD","0"
"52.51073","13.44218","B-GO3212","03/09/2015 00:02:20","42","GOOD","GOOD","0"
