"latitude","longitude","car_plate","date","fuel","interior_state","exterior_state","free_parking_slots"
"52.46012","13.33527","B-GO2383","03/09/2015 23:02:16","51","UNACCEPTABLE","UNACCEPTABLE","0"
"52.49799","13.44347","B-GO2383","03/09/2015 12:02:54","60","UNACCEPTABLE","GOOD","0"
"52.49908","13.43125","B-GO2383","03/09/2015 15:04:04","57","GOOD","GOOD","0"
"52.51994","13.33427","B-GO2383","03/09/2015 20:39:59","54","GOOD","UNACCEPTABLE","0"
"52.52351","13.30975","B-GO2383","03/09/2015 21:22:19","54","GOOD","GOOD","0"
"52.53338","13.1966","B-GO2383","03/09/2015 09:35:33","66","GOOD","GOOD","0"
"52.53583","13.18463","B-GO2383","03/09/2015 00:26:05","66","GOOD","GOOD","0"
"52.5374","13.42706","B-GO2383","03/09/2015 16:41:26","57","UNACCEPTABLE","UNACCEPTABLE","0"
"52.54682","13.31816","B-GO2383","03/09/2015 19:34:25","54","GOOD","GOOD","0"
