"latitude","longitude","car_plate","date","fuel","interior_state","exterior_state","free_parking_slots"
"52.43831","13.25976","B-GO2325","03/09/2015 16:12:00","21","GOOD","GOOD","0"
"52.48062","13.28256","B-GO2325","03/09/2015 10:18:47","27","UNACCEPTABLE","GOOD","0"
"52.54058","13.27976","B-GO2325","03/09/2015 11:58:46","24","UNACCEPTABLE","GOOD","0"
"52.5417","13.27396","B-GO2325","03/09/2015 00:16:48","27","GOOD","GOOD","0"
