"latitude","longitude","car_plate","date","fuel","interior_state","exterior_state","free_parking_slots"
"52.51024","13.45181","B-GO2675","03/09/2015 00:00:15","54","GOOD","GOOD","0"
"52.53115","13.28223","B-GO2675","03/09/2015 23:58:01","48","GOOD","GOOD","0"
"52.56084","13.37878","B-GO2675","03/09/2015 01:09:26","51","GOOD","GOOD","0"
