"latitude","longitude","car_plate","date","fuel","interior_state","exterior_state","free_parking_slots"
"52.42257","13.43751","B-GO3263","03/09/2015 00:00:16","100","GOOD","GOOD","0"
"52.42286","13.48507","B-GO3263","03/09/2015 10:02:20","100","GOOD","GOOD","0"
"52.42785","13.47409","B-GO3263","03/09/2015 19:37:31","100","GOOD","GOOD","0"
