"latitude","longitude","car_plate","date","fuel","interior_state","exterior_state","free_parking_slots"
"52.458","13.37098","B-GO2320","03/09/2015 08:03:05","100","GOOD","GOOD","0"
"52.46488","13.41883","B-GO2320","03/09/2015 22:19:42","100","UNACCEPTABLE","UNACCEPTABLE","0"
"52.49206","13.35177","B-GO2320","03/09/2015 20:04:56","100","UNACCEPTABLE","GOOD","0"
"52.50436","13.34124","B-GO2320","03/09/2015 09:28:19","100","GOOD","GOOD","0"
"52.50869","13.32465","B-GO2320","03/09/2015 14:09:30","100","GOOD","GOOD","0"
"52.51135","13.3012","B-GO2320","03/09/2015 03:54:35","100","GOOD","GOOD","0"
"52.54339","13.19794","B-GO2320","03/09/2015 00:00:16","18","UNACCEPTABLE","UNACCEPTABLE","0"
