"latitude","longitude","car_plate","date","fuel","interior_state","exterior_state","free_parking_slots"
"52.49756","13.29606","B-GO2669","03/09/2015 07:37:22","100","GOOD","GOOD","0"
"52.50879","13.25999","B-GO2669","03/09/2015 23:49:45","100","GOOD","GOOD","0"
"52.52061","13.32774","B-GO2669","03/09/2015 18:37:49","100","GOOD","GOOD","0"
"52.53103","13.3672","B-GO2669","03/09/2015 15:03:02","100","GOOD","GOOD","0"
"52.56984","13.36887","B-GO2669","03/09/2015 05:17:12","100","GOOD","GOOD","0"
