"latitude","longitude","car_plate","date","fuel","interior_state","exterior_state","free_parking_slots"
"52.43211","13.36937","B-GO2962","03/09/2015 09:26:15","100","GOOD","GOOD","0"
"52.4323","13.52662","B-GO2962","03/09/2015 19:43:11","100","GOOD","GOOD","0"
"52.43555","13.34167","B-GO2962","03/09/2015 10:56:56","100","GOOD","GOOD","0"
"52.45417","13.36827","B-GO2962","03/09/2015 01:37:16","100","UNACCEPTABLE","UNACCEPTABLE","0"
"52.47549","13.33083","B-GO2962","03/09/2015 23:55:57","96","GOOD","GOOD","0"
"52.49196","13.3538","B-GO2962","03/09/2015 17:52:10","100","GOOD","GOOD","0"
"52.50197","13.30898","B-GO2962","03/09/2015 18:53:16","100","GOOD","GOOD","0"
"52.50205","13.33335","B-GO2962","03/09/2015 13:31:23","100","GOOD","GOOD","0"
"52.52663","13.36456","B-GO2962","03/09/2015 14:09:31","100","GOOD","GOOD","0"
