"latitude","longitude","car_plate","date","fuel","interior_state","exterior_state","free_parking_slots"
"52.49211","13.39281","B-GO3336","03/09/2015 23:38:24","24","GOOD","GOOD","0"
"52.4987","13.4463","B-GO3336","03/09/2015 19:03:33","30","GOOD","GOOD","0"
"52.49987","13.43882","B-GO3336","03/09/2015 22:51:51","24","GOOD","GOOD","0"
"52.51131","13.45883","B-GO3336","03/09/2015 13:50:58","33","GOOD","GOOD","0"
"52.51282","13.48744","B-GO3336","03/09/2015 15:03:02","30","GOOD","GOOD","0"
"52.51337","13.50238","B-GO3336","03/09/2015 20:30:42","27","GOOD","GOOD","0"
"52.51552","13.46486","B-GO3336","03/09/2015 20:03:55","27","GOOD","GOOD","0"
"52.51724","13.46589","B-GO3336","03/09/2015 21:41:55","24","GOOD","UNACCEPTABLE","0"
"52.52589","13.37012","B-GO3336","03/09/2015 13:17:00","33","UNACCEPTABLE","UNACCEPTABLE","0"
"52.52966","13.38788","B-GO3336","03/09/2015 19:25:10","30","GOOD","GOOD","0"
"52.54306","13.33742","B-GO3336","03/09/2015 12:21:26","36","GOOD","GOOD","0"
"52.54993","13.3516","B-GO3336","03/09/2015 00:44:41","36","GOOD","GOOD","0"
