"latitude","longitude","car_plate","date","fuel","interior_state","exterior_state","free_parking_slots"
"52.42958","13.26136","B-GO2779","03/09/2015 23:45:37","39","UNACCEPTABLE","UNACCEPTABLE","0"
"52.50428","13.29538","B-GO2779","03/09/2015 19:33:23","45","GOOD","GOOD","0"
"52.51126","13.31801","B-GO2779","03/09/2015 10:27:00","51","GOOD","GOOD","0"
"52.51132","13.30297","B-GO2779","03/09/2015 10:09:31","51","GOOD","GOOD","0"
"52.51469","13.46388","B-GO2779","03/09/2015 11:48:27","48","GOOD","UNACCEPTABLE","0"
"52.51562","13.29509","B-GO2779","03/09/2015 07:20:53","54","GOOD","GOOD","0"
"52.5277","13.39808","B-GO2779","03/09/2015 21:05:44","42","GOOD","GOOD","0"
"52.56128","13.33298","B-GO2779","03/09/2015 08:43:06","51","GOOD","GOOD","0"
