"latitude","longitude","car_plate","date","fuel","interior_state","exterior_state","free_parking_slots"
"52.46801","13.30762","B-GO3375","03/09/2015 00:01:17","48","UNACCEPTABLE","GOOD","0"
"52.5068","13.43962","B-GO3375","03/09/2015 11:35:03","45","GOOD","GOOD","0"
"52.51794","13.45671","B-GO3375","03/09/2015 16:10:59","45","GOOD","GOOD","0"
"52.51794","13.45719","B-GO3375","03/09/2015 18:34:43","42","GOOD","UNACCEPTABLE","0"
"52.52618","13.45743","B-GO3375","03/09/2015 23:58:02","42","GOOD","GOOD","0"
"52.53657","13.50129","B-GO3375","03/09/2015 17:15:25","42","GOOD","GOOD","0"
