"latitude","longitude","car_plate","date","fuel","interior_state","exterior_state","free_parking_slots"
"52.50863","13.39299","B-GO3219","03/09/2015 08:36:57","45","GOOD","GOOD","0"
"52.53568","13.40078","B-GO3219","03/09/2015 23:47:41","33","UNACCEPTABLE","UNACCEPTABLE","0"
"52.53684","13.43425","B-GO3219","03/09/2015 01:05:19","48","GOOD","GOOD","0"
"52.55201","13.44949","B-GO3219","03/09/2015 22:25:52","36","GOOD","GOOD","0"
"52.55201","13.44952","B-GO3219","03/09/2015 09:28:19","45","GOOD","GOOD","0"
