"latitude","longitude","car_plate","date","fuel","interior_state","exterior_state","free_parking_slots"
"52.50371","13.31352","B-GO3215","03/09/2015 02:06:09","51","UNACCEPTABLE","GOOD","0"
"52.50394","13.33538","B-GO3215","03/09/2015 11:11:19","45","GOOD","GOOD","0"
"52.5133","13.40345","B-GO3215","03/09/2015 22:11:26","42","UNACCEPTABLE","UNACCEPTABLE","0"
"52.52686","13.33335","B-GO3215","03/09/2015 14:41:23","42","UNACCEPTABLE","UNACCEPTABLE","0"
"52.53352","13.35269","B-GO3215","03/09/2015 00:43:39","51","GOOD","GOOD","0"
"52.53615","13.19566","B-GO3215","03/09/2015 07:59:59","48","GOOD","GOOD","0"
