"latitude","longitude","car_plate","date","fuel","interior_state","exterior_state","free_parking_slots"
"52.49888","13.40336","B-GO3089","03/09/2015 20:47:11","100","GOOD","GOOD","0"
"52.50018","13.43859","B-GO3089","03/09/2015 18:36:46","24","UNACCEPTABLE","UNACCEPTABLE","0"
"52.50252","13.39811","B-GO3089","03/09/2015 23:48:42","100","UNACCEPTABLE","UNACCEPTABLE","0"
"52.52731","13.36214","B-GO3089","03/09/2015 17:59:20","27","GOOD","GOOD","0"
"52.54746","13.36534","B-GO3089","03/09/2015 03:26:43","30","GOOD","GOOD","0"
"52.57415","13.39024","B-GO3089","03/09/2015 07:47:37","27","GOOD","GOOD","0"
