"latitude","longitude","car_plate","date","fuel","interior_state","exterior_state","free_parking_slots"
"52.46318","13.34351","B-GO2998","03/09/2015 22:01:08","15","GOOD","GOOD","0"
"52.49796","13.43061","B-GO2998","03/09/2015 09:52:00","18","GOOD","UNACCEPTABLE","0"
"52.5024","13.3689","B-GO2998","03/09/2015 17:26:24","15","GOOD","GOOD","0"
"52.50519","13.419","B-GO2998","03/09/2015 09:08:46","21","GOOD","GOOD","0"
"52.50621","13.419","B-GO2998","03/09/2015 10:57:57","18","GOOD","UNACCEPTABLE","0"
"52.51216","13.39074","B-GO2998","03/09/2015 12:21:25","18","GOOD","GOOD","0"
"52.52581","13.36929","B-GO2998","03/09/2015 17:09:14","15","GOOD","GOOD","0"
"52.53043","13.35083","B-GO2998","03/09/2015 06:38:41","21","GOOD","GOOD","0"
"52.53933","13.40501","B-GO2998","03/09/2015 12:54:21","15","GOOD","GOOD","0"
