"latitude","longitude","car_plate","date","fuel","interior_state","exterior_state","free_parking_slots"
"52.45618","13.52626","B-GO2642","03/09/2015 00:00:15","39","GOOD","GOOD","0"
"52.49933","13.3902","B-GO2642","03/09/2015 06:36:38","36","GOOD","GOOD","0"
"52.53448","13.42165","B-GO2642","03/09/2015 07:20:53","33","GOOD","GOOD","0"
"52.55619","13.43695","B-GO2642","03/09/2015 08:08:13","33","GOOD","GOOD","0"
