"latitude","longitude","car_plate","date","fuel","interior_state","exterior_state","free_parking_slots"
"52.48565","13.43468","B-GO2057","03/09/2015 19:00:27","90","GOOD","GOOD","0"
"52.49478","13.43972","B-GO2057","03/09/2015 20:37:53","90","GOOD","GOOD","0"
"52.49505","13.46968","B-GO2057","03/09/2015 23:36:18","84","GOOD","GOOD","0"
"52.49762","13.44672","B-GO2057","03/09/2015 09:35:32","93","GOOD","GOOD","0"
"52.49763","13.44119","B-GO2057","03/09/2015 18:17:52","93","GOOD","GOOD","0"
"52.49989","13.45586","B-GO2057","03/09/2015 14:30:04","93","GOOD","GOOD","0"
"52.50711","13.40537","B-GO2057","03/09/2015 21:31:35","87","GOOD","GOOD","0"
"52.512","13.47443","B-GO2057","03/09/2015 08:49:15","96","GOOD","GOOD","0"
