"latitude","longitude","car_plate","date","fuel","interior_state","exterior_state","free_parking_slots"
"52.43925","13.2785","B-GO2900","03/09/2015 17:58:19","100","GOOD","GOOD","0"
"52.51393","13.39817","B-GO2900","03/09/2015 10:41:27","100","GOOD","GOOD","0"
"52.55195","13.3645","B-GO2900","03/09/2015 00:42:38","9","GOOD","GOOD","0"
"52.58667","13.28366","B-GO2900","03/09/2015 08:52:21","100","GOOD","GOOD","0"
