"latitude","longitude","car_plate","date","fuel","interior_state","exterior_state","free_parking_slots"
"52.42375","13.38097","B-GO2576","03/09/2015 09:07:45","100","GOOD","GOOD","0"
"52.42848","13.40457","B-GO2576","03/09/2015 23:58:01","100","UNACCEPTABLE","GOOD","0"
"52.44626","13.37926","B-GO2576","03/09/2015 02:16:27","100","GOOD","GOOD","0"
"52.46013","13.40664","B-GO2576","03/09/2015 07:05:28","100","GOOD","GOOD","0"
"52.55031","13.35852","B-GO2576","03/09/2015 00:00:15","100","UNACCEPTABLE","UNACCEPTABLE","0"
