"latitude","longitude","car_plate","date","fuel","interior_state","exterior_state","free_parking_slots"
"52.43845","13.45214","B-GO2671","03/09/2015 03:16:24","51","GOOD","GOOD","0"
"52.45488","13.29237","B-GO2671","03/09/2015 14:00:13","42","GOOD","UNACCEPTABLE","0"
"52.46207","13.36664","B-GO2671","03/09/2015 08:53:22","45","UNACCEPTABLE","UNACCEPTABLE","0"
"52.46232","13.34838","B-GO2671","03/09/2015 08:31:50","48","GOOD","GOOD","0"
"52.46538","13.36702","B-GO2671","03/09/2015 15:58:34","39","GOOD","UNACCEPTABLE","0"
"52.46571","13.37284","B-GO2671","03/09/2015 20:04:56","33","UNACCEPTABLE","GOOD","0"
"52.48644","13.4634","B-GO2671","03/09/2015 23:38:23","100","GOOD","GOOD","0"
"52.49833","13.42896","B-GO2671","03/09/2015 21:16:08","30","GOOD","GOOD","0"
"52.49965","13.46263","B-GO2671","03/09/2015 20:41:00","30","UNACCEPTABLE","GOOD","0"
"52.49986","13.43011","B-GO2671","03/09/2015 22:35:13","100","GOOD","GOOD","0"
"52.5142","13.46605","B-GO2671","03/09/2015 18:49:07","36","UNACCEPTABLE","UNACCEPTABLE","0"
