"latitude","longitude","car_plate","date","fuel","interior_state","exterior_state","free_parking_slots"
"52.42296","13.37466","B-GO2703","03/09/2015 00:01:18","45","GOOD","GOOD","0"
"52.43118","13.37666","B-GO2703","03/09/2015 10:40:26","100","GOOD","GOOD","0"
"52.44283","13.32087","B-GO2703","03/09/2015 16:43:31","100","GOOD","GOOD","0"
"52.44453","13.32211","B-GO2703","03/09/2015 15:29:46","100","GOOD","GOOD","0"
"52.48326","13.37866","B-GO2703","03/09/2015 23:58:02","100","GOOD","GOOD","0"
"52.48499","13.378","B-GO2703","03/09/2015 17:06:10","100","UNACCEPTABLE","UNACCEPTABLE","0"
"52.48779","13.37582","B-GO2703","03/09/2015 12:42:00","100","GOOD","GOOD","0"
