"latitude","longitude","car_plate","date","fuel","interior_state","exterior_state","free_parking_slots"
"52.51935","13.27459","B-GO9005","03/09/2015 01:04:18","15","GOOD","GOOD","0"
"52.5373","13.22868","B-GO9005","03/09/2015 15:00:59","12","GOOD","GOOD","0"
"52.54797","13.19137","B-GO9005","03/09/2015 09:04:41","12","GOOD","GOOD","0"
