"latitude","longitude","car_plate","date","fuel","interior_state","exterior_state","free_parking_slots"
"52.46989","13.33162","B-GO2110","03/09/2015 00:00:16","36","GOOD","GOOD","0"
"52.51294","13.40657","B-GO2110","03/09/2015 23:58:02","30","GOOD","GOOD","0"
"52.51326","13.39372","B-GO2110","03/09/2015 15:28:44","30","GOOD","GOOD","0"
"52.53871","13.27017","B-GO2110","03/09/2015 06:41:48","33","GOOD","GOOD","0"
