"latitude","longitude","car_plate","date","fuel","interior_state","exterior_state","free_parking_slots"
"52.49947","13.48958","B-GO2347","03/09/2015 19:10:44","66","GOOD","UNACCEPTABLE","0"
"52.50562","13.50409","B-GO2347","03/09/2015 21:51:50","66","GOOD","GOOD","0"
"52.50586","13.4701","B-GO2347","03/09/2015 16:51:45","66","UNACCEPTABLE","UNACCEPTABLE","0"
"52.50845","13.46129","B-GO2347","03/09/2015 23:52:51","63","GOOD","GOOD","0"
"52.51296","13.49934","B-GO2347","03/09/2015 13:38:36","72","GOOD","GOOD","0"
"52.51526","13.50246","B-GO2347","03/09/2015 03:43:13","75","GOOD","GOOD","0"
"52.53779","13.49048","B-GO2347","03/09/2015 14:57:52","69","UNACCEPTABLE","UNACCEPTABLE","0"
