"latitude","longitude","car_plate","date","fuel","interior_state","exterior_state","free_parking_slots"
"52.48539","13.42319","B-GO2909","03/09/2015 21:01:38","63","GOOD","GOOD","0"
"52.49622","13.29476","B-GO2909","03/09/2015 17:40:49","69","GOOD","GOOD","0"
"52.49921","13.40362","B-GO2909","03/09/2015 19:41:04","66","GOOD","GOOD","0"
"52.50063","13.29913","B-GO2909","03/09/2015 15:20:31","72","GOOD","GOOD","0"
"52.50626","13.32196","B-GO2909","03/09/2015 17:55:14","69","GOOD","GOOD","0"
"52.50802","13.39512","B-GO2909","03/09/2015 07:58:58","72","GOOD","GOOD","0"
"52.5184","13.32682","B-GO2909","03/09/2015 09:49:58","72","GOOD","UNACCEPTABLE","0"
"52.53289","13.40448","B-GO2909","03/09/2015 07:02:23","75","GOOD","GOOD","0"
"52.5335","13.40284","B-GO2909","03/09/2015 23:55:57","60","UNACCEPTABLE","UNACCEPTABLE","0"
"52.5347","13.42472","B-GO2909","03/09/2015 23:01:14","63","GOOD","GOOD","0"
"52.54659","13.41007","B-GO2909","03/09/2015 18:48:06","66","GOOD","GOOD","0"
