"latitude","longitude","car_plate","date","fuel","interior_state","exterior_state","free_parking_slots"
"52.50142","13.36412","B-GO3344","03/09/2015 08:19:31","57","GOOD","GOOD","0"
"52.50827","13.39874","B-GO3344","03/09/2015 06:59:18","57","GOOD","GOOD","0"
"52.54891","13.3515","B-GO3344","03/09/2015 14:20:50","54","GOOD","GOOD","0"
"52.5499","13.33836","B-GO3344","03/09/2015 05:44:02","60","GOOD","GOOD","0"
"52.55222","13.35682","B-GO3344","03/09/2015 20:35:50","51","GOOD","GOOD","0"
"52.56249","13.36375","B-GO3344","03/09/2015 23:58:02","51","GOOD","GOOD","0"
"52.57011","13.40597","B-GO3344","03/09/2015 00:01:17","63","GOOD","GOOD","0"
"52.57395","13.37443","B-GO3344","03/09/2015 09:04:41","54","GOOD","GOOD","0"
