"latitude","longitude","car_plate","date","fuel","interior_state","exterior_state","free_parking_slots"
"52.4682","13.46658","B-GO2262","03/09/2015 23:16:42","15","UNACCEPTABLE","UNACCEPTABLE","0"
"52.50465","13.46754","B-GO2262","03/09/2015 08:36:57","15","GOOD","GOOD","0"
"52.50832","13.4553","B-GO2262","03/09/2015 00:17:49","18","GOOD","GOOD","0"
