"latitude","longitude","car_plate","date","fuel","interior_state","exterior_state","free_parking_slots"
"52.4581","13.38604","B-GO2887","03/09/2015 15:33:53","96","GOOD","GOOD","0"
"52.46794","13.42507","B-GO2887","03/09/2015 19:50:30","93","GOOD","GOOD","0"
"52.4776","13.42558","B-GO2887","03/09/2015 23:58:01","90","GOOD","GOOD","0"
"52.48158","13.43","B-GO2887","03/09/2015 16:55:52","93","GOOD","GOOD","0"
"52.48191","13.42523","B-GO2887","03/09/2015 23:03:17","90","GOOD","GOOD","0"
"52.49357","13.38258","B-GO2887","03/09/2015 20:21:23","90","GOOD","GOOD","0"
