"latitude","longitude","car_plate","date","fuel","interior_state","exterior_state","free_parking_slots"
"52.44793","13.31026","B-GO2360","03/09/2015 21:07:48","39","GOOD","GOOD","0"
"52.46179","13.28367","B-GO2360","03/09/2015 01:47:34","48","GOOD","GOOD","0"
"52.46554","13.31751","B-GO2360","03/09/2015 23:38:24","36","GOOD","GOOD","0"
"52.48231","13.3333","B-GO2360","03/09/2015 21:28:31","36","GOOD","GOOD","0"
"52.4851","13.36158","B-GO2360","03/09/2015 13:25:13","45","GOOD","GOOD","0"
"52.49428","13.32485","B-GO2360","03/09/2015 22:41:27","36","GOOD","GOOD","0"
"52.49546","13.35395","B-GO2360","03/09/2015 16:49:42","42","GOOD","GOOD","0"
"52.50772","13.33405","B-GO2360","03/09/2015 18:39:52","39","GOOD","GOOD","0"
"52.51055","13.34506","B-GO2360","03/09/2015 17:53:11","39","GOOD","GOOD","0"
"52.5175","13.32316","B-GO2360","03/09/2015 13:59:11","42","GOOD","GOOD","0"
