"latitude","longitude","car_plate","date","fuel","interior_state","exterior_state","free_parking_slots"
"52.42662","13.45486","B-GO2245","03/09/2015 05:10:59","90","GOOD","GOOD","0"
"52.43002","13.33379","B-GO2245","03/09/2015 15:53:25","81","GOOD","GOOD","0"
"52.46269","13.33516","B-GO2245","03/09/2015 18:32:17","78","GOOD","GOOD","0"
"52.46658","13.43869","B-GO2245","03/09/2015 20:03:54","72","UNACCEPTABLE","GOOD","0"
"52.46856","13.38679","B-GO2245","03/09/2015 14:38:17","87","GOOD","GOOD","0"
"52.48196","13.43989","B-GO2245","03/09/2015 23:16:42","72","GOOD","GOOD","0"
"52.49308","13.39869","B-GO2245","03/09/2015 00:22:59","96","GOOD","GOOD","0"
"52.50234","13.41976","B-GO2245","03/09/2015 20:52:20","72","GOOD","GOOD","0"
