"latitude","longitude","car_plate","date","fuel","interior_state","exterior_state","free_parking_slots"
"52.48505","13.35899","B-GO3051","03/09/2015 13:10:50","100","UNACCEPTABLE","UNACCEPTABLE","0"
"52.48956","13.39437","B-GO3051","03/09/2015 15:43:10","100","GOOD","GOOD","0"
"52.49555","13.35394","B-GO3051","03/09/2015 16:52:47","100","GOOD","GOOD","0"
"52.49672","13.51163","B-GO3051","03/09/2015 23:26:00","90","GOOD","GOOD","0"
"52.51","13.39605","B-GO3051","03/09/2015 17:48:03","100","GOOD","GOOD","0"
"52.52008","13.42888","B-GO3051","03/09/2015 19:34:25","100","GOOD","GOOD","0"
"52.52587","13.44454","B-GO3051","03/09/2015 21:34:42","100","GOOD","GOOD","0"
"52.55138","13.37696","B-GO3051","03/09/2015 09:34:31","100","UNACCEPTABLE","UNACCEPTABLE","0"
