"latitude","longitude","car_plate","date","fuel","interior_state","exterior_state","free_parking_slots"
"52.45808","13.37239","B-GO2902","03/09/2015 04:17:14","100","UNACCEPTABLE","GOOD","0"
"52.50201","13.32267","B-GO2902","03/09/2015 13:25:13","96","GOOD","GOOD","0"
"52.5022","13.32274","B-GO2902","03/09/2015 14:49:38","96","GOOD","GOOD","0"
"52.50272","13.45544","B-GO2902","03/09/2015 00:37:27","100","GOOD","GOOD","0"
"52.53604","13.42052","B-GO2902","03/09/2015 11:10:18","100","UNACCEPTABLE","GOOD","0"
"52.55478","13.34033","B-GO2902","03/09/2015 16:53:49","93","GOOD","GOOD","0"
