"latitude","longitude","car_plate","date","fuel","interior_state","exterior_state","free_parking_slots"
"52.47984","13.29398","B-GO2411","03/09/2015 22:35:12","51","GOOD","GOOD","0"
"52.48691","13.26379","B-GO2411","03/09/2015 02:00:59","54","GOOD","UNACCEPTABLE","0"
"52.50196","13.30591","B-GO2411","03/09/2015 23:02:16","51","GOOD","UNACCEPTABLE","0"
"52.50596","13.29312","B-GO2411","03/09/2015 14:06:24","54","GOOD","GOOD","0"
"52.50605","13.29547","B-GO2411","03/09/2015 18:23:01","54","UNACCEPTABLE","UNACCEPTABLE","0"
