"latitude","longitude","car_plate","date","fuel","interior_state","exterior_state","free_parking_slots"
"52.52351","13.35208","B-GO3053","03/09/2015 03:34:58","48","GOOD","GOOD","0"
"52.54204","13.37137","B-GO3053","03/09/2015 12:23:29","45","GOOD","GOOD","0"
"52.54816","13.35195","B-GO3053","03/09/2015 08:47:12","48","GOOD","GOOD","0"
"52.57496","13.343","B-GO3053","03/09/2015 14:12:36","45","GOOD","GOOD","0"
"52.5768","13.33787","B-GO3053","03/09/2015 19:55:40","45","GOOD","GOOD","0"
