"latitude","longitude","car_plate","date","fuel","interior_state","exterior_state","free_parking_slots"
"52.51052","13.45199","B-GO2070","03/09/2015 12:24:31","51","UNACCEPTABLE","UNACCEPTABLE","0"
"52.51921","13.44692","B-GO2070","03/09/2015 00:34:22","57","GOOD","GOOD","0"
"52.52571","13.31528","B-GO2070","03/09/2015 11:31:58","54","GOOD","UNACCEPTABLE","0"
"52.52728","13.4819","B-GO2070","03/09/2015 13:10:50","51","GOOD","GOOD","0"
