"latitude","longitude","car_plate","date","fuel","interior_state","exterior_state","free_parking_slots"
"52.4951","13.30327","B-GO3224","03/09/2015 00:15:46","66","GOOD","GOOD","0"
"52.50566","13.30548","B-GO3224","03/09/2015 19:57:44","57","GOOD","GOOD","0"
"52.50669","13.3053","B-GO3224","03/09/2015 18:10:39","60","GOOD","GOOD","0"
"52.50988","13.29708","B-GO3224","03/09/2015 21:08:50","57","GOOD","GOOD","0"
"52.51461","13.33533","B-GO3224","03/09/2015 15:42:08","60","GOOD","GOOD","0"
"52.52284","13.3218","B-GO3224","03/09/2015 13:27:16","63","UNACCEPTABLE","GOOD","0"
"52.52592","13.36998","B-GO3224","03/09/2015 07:22:56","63","GOOD","GOOD","0"
"52.53855","13.38665","B-GO3224","03/09/2015 01:11:30","63","GOOD","UNACCEPTABLE","0"
