"latitude","longitude","car_plate","date","fuel","interior_state","exterior_state","free_parking_slots"
"52.45396","13.3327","B-GO2983","03/09/2015 21:53:54","51","GOOD","GOOD","0"
"52.46856","13.3282","B-GO2983","03/09/2015 20:36:52","51","UNACCEPTABLE","UNACCEPTABLE","0"
"52.46911","13.32999","B-GO2983","03/09/2015 22:22:48","48","GOOD","GOOD","0"
"52.4987","13.34034","B-GO2983","03/09/2015 23:36:19","48","GOOD","GOOD","0"
"52.50104","13.30937","B-GO2983","03/09/2015 19:55:41","51","GOOD","GOOD","0"
"52.50793","13.29569","B-GO2983","03/09/2015 19:20:01","51","GOOD","GOOD","0"
"52.51832","13.32566","B-GO2983","03/09/2015 17:54:13","54","GOOD","UNACCEPTABLE","0"
"52.5238","13.38172","B-GO2983","03/09/2015 13:03:38","54","GOOD","GOOD","0"
"52.52756","13.40846","B-GO2983","03/09/2015 09:02:38","54","GOOD","UNACCEPTABLE","0"
"52.53382","13.4267","B-GO2983","03/09/2015 01:23:53","54","GOOD","GOOD","0"
