"latitude","longitude","car_plate","date","fuel","interior_state","exterior_state","free_parking_slots"
"52.4351","13.28323","B-GO2389","03/09/2015 17:37:44","39","UNACCEPTABLE","UNACCEPTABLE","0"
"52.43751","13.23302","B-GO2389","03/09/2015 22:14:32","30","GOOD","GOOD","0"
"52.44023","13.28902","B-GO2389","03/09/2015 15:36:59","39","UNACCEPTABLE","UNACCEPTABLE","0"
"52.44029","13.27819","B-GO2389","03/09/2015 05:03:45","45","GOOD","GOOD","0"
"52.47938","13.3203","B-GO2389","03/09/2015 18:31:16","36","UNACCEPTABLE","UNACCEPTABLE","0"
"52.51426","13.38631","B-GO2389","03/09/2015 13:58:09","42","GOOD","GOOD","0"
"52.52231","13.37806","B-GO2389","03/09/2015 08:12:20","42","GOOD","GOOD","0"
"52.53329","13.19715","B-GO2389","03/09/2015 19:57:44","36","GOOD","GOOD","0"
