"latitude","longitude","car_plate","date","fuel","interior_state","exterior_state","free_parking_slots"
"52.47814","13.4427","B-GO3396","03/09/2015 20:35:49","33","GOOD","GOOD","0"
"52.48664","13.39589","B-GO3396","03/09/2015 18:49:06","33","GOOD","GOOD","0"
"52.50036","13.45862","B-GO3396","03/09/2015 05:39:55","39","GOOD","GOOD","0"
"52.50316","13.38863","B-GO3396","03/09/2015 17:23:18","36","GOOD","GOOD","0"
"52.51875","13.41534","B-GO3396","03/09/2015 14:04:19","36","UNACCEPTABLE","GOOD","0"
